<?xml version="1.0" encoding="UTF-8" standalone="no"?>
<!-- Created with Inkscape (http://www.inkscape.org/) -->

<svg
   width="53mm"
   height="66mm"
   viewBox="0 0 53 66"
   version="1.1"
   id="svg1"
   inkscape:version="1.3.2 (091e20e, 2023-11-25)"
   sodipodi:docname="addcard.svg"
   xmlns:inkscape="http://www.inkscape.org/namespaces/inkscape"
   xmlns:sodipodi="http://sodipodi.sourceforge.net/DTD/sodipodi-0.dtd"
   xmlns="http://www.w3.org/2000/svg"
   xmlns:svg="http://www.w3.org/2000/svg">
  <sodipodi:namedview
     id="namedview1"
     pagecolor="#505050"
     bordercolor="#ffffff"
     borderopacity="1"
     inkscape:showpageshadow="0"
     inkscape:pageopacity="0"
     inkscape:pagecheckerboard="1"
     inkscape:deskcolor="#d1d1d1"
     inkscape:document-units="mm"
     inkscape:zoom="2.5378497"
     inkscape:cx="97.720523"
     inkscape:cy="126.091"
     inkscape:window-width="1552"
     inkscape:window-height="1128"
     inkscape:window-x="221"
     inkscape:window-y="70"
     inkscape:window-maximized="0"
     inkscape:current-layer="layer1" />
  <defs
     id="defs1" />
  <g
     inkscape:label="Ebene 1"
     inkscape:groupmode="layer"
     id="layer1">
    <path
       style="fill:#f0f0f0;fill-opacity:1;fill-rule:evenodd;stroke:#b4b4b4;stroke-width:0.229;stroke-linecap:butt;stroke-linejoin:miter;stroke-miterlimit:4;stroke-dasharray:none;stroke-opacity:1;stroke-dashoffset:0"
       d="m 52.652087,2.6458335 c 0,-1.32291 -1.05834,-2.38125 -2.38125,-2.38125 H 2.6458335 c -1.322916,0 -2.38125,1.05834 -2.38125,2.38125 V 63.500003 c 0,1.32292 1.058334,2.38125 2.38125,2.38125 H 50.270837 c 1.32291,0 2.38125,-1.05833 2.38125,-2.38125 z"
       id="path3229"
       sodipodi:nodetypes="ccccccccc" />
    <circle
       style="fill:#f0f0f0;fill-rule:evenodd;stroke-width:2;fill-opacity:1;stroke:#ffffff;stroke-opacity:1;stroke-dasharray:none"
       id="path2"
       r="13"
       cy="33.072914"
       cx="26.458307" />
    <g
       id="g3"
       style="fill:#19ffff;fill-opacity:1;stroke:#ffffff;stroke-opacity:1;stroke-width:1.5;stroke-dasharray:none;stroke-linecap:round">
      <path
         style="fill:#19ffff;stroke:#ffffff;stroke-width:1.5;stroke-linecap:round;stroke-linejoin:miter;stroke-opacity:1;fill-opacity:1;stroke-dasharray:none"
         d="m 19.785992,33.072915 c 13.344632,0 13.344632,0 13.344632,0"
         id="path3" />
      <path
         style="fill:#19ffff;stroke:#ffffff;stroke-width:1.5;stroke-linecap:round;stroke-linejoin:miter;stroke-opacity:1;fill-opacity:1;stroke-dasharray:none"
         d="m 26.458308,26.400599 c 0,13.344632 0,13.344632 0,13.344632"
         id="path3-4" />
    </g>
  </g>
</svg>
