<?xml version="1.0" encoding="UTF-8" standalone="no"?>
<!-- Created with Inkscape (http://www.inkscape.org/) -->

<svg
   width="53mm"
   height="66mm"
   viewBox="0 0 53 66"
   version="1.1"
   id="svg1"
   inkscape:version="1.3.2 (091e20e, 2023-11-25)"
   sodipodi:docname="back3.svg"
   xmlns:inkscape="http://www.inkscape.org/namespaces/inkscape"
   xmlns:sodipodi="http://sodipodi.sourceforge.net/DTD/sodipodi-0.dtd"
   xmlns="http://www.w3.org/2000/svg"
   xmlns:svg="http://www.w3.org/2000/svg">
  <sodipodi:namedview
     id="namedview1"
     pagecolor="#505050"
     bordercolor="#ffffff"
     borderopacity="1"
     inkscape:showpageshadow="0"
     inkscape:pageopacity="0"
     inkscape:pagecheckerboard="1"
     inkscape:deskcolor="#d1d1d1"
     inkscape:document-units="mm"
     inkscape:zoom="2.5378497"
     inkscape:cx="97.720523"
     inkscape:cy="126.091"
     inkscape:window-width="1552"
     inkscape:window-height="1128"
     inkscape:window-x="383"
     inkscape:window-y="44"
     inkscape:window-maximized="0"
     inkscape:current-layer="layer1"
     showguides="true" />
  <defs
     id="defs1" />
  <g
     inkscape:label="Ebene 1"
     inkscape:groupmode="layer"
     id="layer1">
    <path
       style="fill:#ffffff;fill-opacity:1;fill-rule:evenodd;stroke:#000000;stroke-width:0.529167;stroke-linecap:butt;stroke-linejoin:miter;stroke-miterlimit:4;stroke-dasharray:none;stroke-opacity:1"
       d="m 52.652087,2.6458335 c 0,-1.32291 -1.05834,-2.38125 -2.38125,-2.38125 H 2.6458335 c -1.322916,0 -2.38125,1.05834 -2.38125,2.38125 V 63.500003 c 0,1.32292 1.058334,2.38125 2.38125,2.38125 H 50.270837 c 1.32291,0 2.38125,-1.05833 2.38125,-2.38125 z"
       id="path3229"
       sodipodi:nodetypes="ccccccccc" />
    <path
       style="fill:#ffffff;fill-rule:evenodd;stroke:none;stroke-width:0.32937;stroke-miterlimit:4"
       d="M 50.839146,14.499063 V 2.1185475 H 38.650509 V 14.499063 Z"
       id="path11" />
    <path
       style="fill:#190c80;fill-rule:evenodd;stroke:none;stroke-width:0.32937;stroke-miterlimit:4"
       d="M 38.650509,14.499063 V 2.1185475 H 26.455119 V 14.499063 Z"
       id="path13" />
    <path
       style="fill:#ffffff;fill-rule:evenodd;stroke:none;stroke-width:0.32937;stroke-miterlimit:4"
       d="M 14.266161,26.879254 V 14.499063 H 2.0775243 v 12.380191 z"
       id="path15" />
    <path
       style="fill:#190c80;fill-rule:evenodd;stroke:none;stroke-width:0.32937;stroke-miterlimit:4"
       d="M 26.455119,26.879254 V 14.499063 H 14.266161 v 12.380191 z"
       id="path17" />
    <path
       style="fill:#ffffff;fill-rule:evenodd;stroke:none;stroke-width:0.32937;stroke-miterlimit:4"
       d="M 38.650509,26.879254 V 14.499063 h -12.19539 v 12.380191 z"
       id="path19" />
    <path
       style="fill:#190c80;fill-rule:evenodd;stroke:none;stroke-width:0.32937;stroke-miterlimit:4"
       d="M 50.839146,26.879254 V 14.499063 H 38.650509 v 12.380191 z"
       id="path21" />
    <path
       style="fill:#ffffff;fill-rule:evenodd;stroke:none;stroke-width:0.32937;stroke-miterlimit:4"
       d="M 26.455119,14.499063 V 2.1185475 H 14.266161 V 14.499063 Z"
       id="path23" />
    <path
       style="fill:#190c80;fill-rule:evenodd;stroke:none;stroke-width:0.32937;stroke-miterlimit:4"
       d="M 14.266161,14.499063 V 2.1185475 H 2.0775243 V 14.499063 Z"
       id="path25" />
    <path
       style="fill:#ffffff;fill-rule:evenodd;stroke:none;stroke-width:0.32937;stroke-miterlimit:4"
       d="M 26.455119,64.02729 V 51.643531 H 14.266161 V 64.02729 Z"
       id="path31" />
    <path
       style="fill:#190c80;fill-rule:evenodd;stroke:none;stroke-width:0.32937;stroke-miterlimit:4"
       d="M 14.266161,64.02729 V 51.643531 H 2.0775243 V 64.02729 Z"
       id="path33" />
    <path
       style="fill:#ffffff;fill-rule:evenodd;stroke:none;stroke-width:0.32937;stroke-miterlimit:4"
       d="M 14.266161,51.643531 V 39.263016 H 2.0775243 v 12.380515 z"
       id="path35" />
    <path
       style="fill:#190c80;fill-rule:evenodd;stroke:none;stroke-width:0.32937;stroke-miterlimit:4"
       d="M 26.455119,51.643531 V 39.263016 H 14.266161 v 12.380515 z"
       id="path37" />
    <path
       style="fill:#ffffff;fill-rule:evenodd;stroke:none;stroke-width:0.32937;stroke-miterlimit:4"
       d="M 50.839146,39.263016 V 26.879254 H 38.650509 v 12.383762 z"
       id="path39" />
    <path
       style="fill:#190c80;fill-rule:evenodd;stroke:none;stroke-width:0.32937;stroke-miterlimit:4"
       d="M 38.650509,39.263016 V 26.879254 h -12.19539 v 12.383762 z"
       id="path41" />
    <path
       style="fill:#ffffff;fill-rule:evenodd;stroke:none;stroke-width:0.32937;stroke-miterlimit:4"
       d="M 26.455119,39.263016 V 26.879254 H 14.266161 v 12.383762 z"
       id="path43" />
    <path
       style="fill:#190c80;fill-rule:evenodd;stroke:none;stroke-width:0.32937;stroke-miterlimit:4"
       d="M 14.266161,39.263016 V 26.879254 H 2.0775243 v 12.383762 z"
       id="path45" />
    <path
       style="fill:#ffffff;fill-rule:evenodd;stroke:none;stroke-width:0.32937;stroke-miterlimit:4"
       d="M 38.650509,51.643531 V 39.263016 h -12.19539 v 12.380515 z"
       id="path47" />
    <path
       style="fill:#190c80;fill-rule:evenodd;stroke:none;stroke-width:0.32937;stroke-miterlimit:4"
       d="M 50.839146,51.643531 V 39.263016 H 38.650509 v 12.380515 z"
       id="path49" />
    <path
       style="fill:#ffffff;fill-rule:evenodd;stroke:none;stroke-width:0.32937;stroke-miterlimit:4"
       d="M 50.839146,64.02729 V 51.643531 H 38.650509 V 64.02729 Z"
       id="path51" />
    <path
       style="fill:#190c80;fill-rule:evenodd;stroke:none;stroke-width:0.32937;stroke-miterlimit:4"
       d="M 38.650509,64.02729 V 51.643531 H 26.455119 V 64.02729 Z"
       id="path53" />
    <path
       style="fill:#190c80;fill-rule:evenodd;stroke:none;stroke-width:0.32937;stroke-miterlimit:4"
       d="M 40.17642,2.1185475 38.650509,3.6682192 49.313558,14.499063 50.839146,12.949067 Z"
       id="path59" />
    <path
       style="fill:#ffffff;fill-rule:evenodd;stroke:none;stroke-width:0.32937;stroke-miterlimit:4"
       d="m 27.980709,2.1185475 -1.52559,1.5496717 10.66948,10.8308438 1.52591,-1.549996 -10.6698,-10.8305195"
       id="path61" />
    <path
       style="fill:#190c80;fill-rule:evenodd;stroke:none;stroke-width:0.32937;stroke-miterlimit:4"
       d="M 12.740732,14.499063 14.266161,16.045006 3.5998977,26.879254 2.0775243,25.336552 Z"
       id="path63" />
    <path
       style="fill:#ffffff;fill-rule:evenodd;stroke:none;stroke-width:0.32937;stroke-miterlimit:4"
       d="m 24.936123,14.499063 1.518996,1.545943 -10.663208,10.834248 -1.52575,-1.542702 10.669962,-10.837489"
       id="path65" />
    <path
       style="fill:#190c80;fill-rule:evenodd;stroke:none;stroke-width:0.32937;stroke-miterlimit:4"
       d="m 37.124599,14.499063 1.52591,1.545943 -10.6698,10.834248 -1.52559,-1.542702 z"
       id="path67" />
    <path
       style="fill:#ffffff;fill-rule:evenodd;stroke:none;stroke-width:0.32937;stroke-miterlimit:4"
       d="M 49.313558,14.499063 50.839146,16.045006 40.17642,26.879254 38.650509,25.336552 49.313558,14.499063"
       id="path69" />
    <path
       style="fill:#190c80;fill-rule:evenodd;stroke:none;stroke-width:0.32937;stroke-miterlimit:4"
       d="m 15.791911,2.1185475 -1.52575,1.5496717 10.669962,10.8308438 1.518996,-1.549996 z"
       id="path71" />
    <path
       style="fill:#ffffff;fill-rule:evenodd;stroke:none;stroke-width:0.32937;stroke-miterlimit:4"
       d="M 3.5998977,2.1185475 2.0775243,3.6682192 12.740732,14.499063 14.266161,12.949067 3.5998977,2.1185475"
       id="path73" />
    <path
       style="fill:#190c80;fill-rule:evenodd;stroke:none;stroke-width:0.32937;stroke-miterlimit:4"
       d="m 15.791911,64.02729 -1.52575,-1.549832 10.669962,-10.833927 1.518996,1.54951 z"
       id="path79" />
    <path
       style="fill:#ffffff;fill-rule:evenodd;stroke:none;stroke-width:0.32937;stroke-miterlimit:4"
       d="M 3.5998977,64.02729 2.0775243,62.477458 12.740732,51.643531 14.266161,53.193041 3.5998977,64.02729"
       id="path81" />
    <path
       style="fill:#190c80;fill-rule:evenodd;stroke:none;stroke-width:0.32937;stroke-miterlimit:4"
       d="M 12.740732,51.643531 14.266161,50.093696 3.5998977,39.263016 2.0775243,40.812847 Z"
       id="path83" />
    <path
       style="fill:#ffffff;fill-rule:evenodd;stroke:none;stroke-width:0.32937;stroke-miterlimit:4"
       d="m 24.936123,51.643531 1.518996,-1.549835 -10.663208,-10.83068 -1.52575,1.549831 10.669962,10.830684"
       id="path85" />
    <path
       style="fill:#190c80;fill-rule:evenodd;stroke:none;stroke-width:0.32937;stroke-miterlimit:4"
       d="m 40.17642,39.263016 -1.525911,-1.54627 10.663049,-10.837492 1.525588,1.549836 z"
       id="path87" />
    <path
       style="fill:#ffffff;fill-rule:evenodd;stroke:none;stroke-width:0.32937;stroke-miterlimit:4"
       d="m 27.980709,39.263016 -1.52559,-1.54627 10.66948,-10.837492 1.52591,1.549836 -10.6698,10.833926"
       id="path89" />
    <path
       style="fill:#190c80;fill-rule:evenodd;stroke:none;stroke-width:0.32937;stroke-miterlimit:4"
       d="m 15.791911,39.263016 -1.52575,-1.54627 10.669962,-10.837492 1.518996,1.549836 z"
       id="path91" />
    <path
       style="fill:#ffffff;fill-rule:evenodd;stroke:none;stroke-width:0.32937;stroke-miterlimit:4"
       d="M 3.5998977,39.263016 2.0775243,37.716746 12.740732,26.879254 14.266161,28.42909 3.5998977,39.263016"
       id="path93" />
    <path
       style="fill:#190c80;fill-rule:evenodd;stroke:none;stroke-width:0.32937;stroke-miterlimit:4"
       d="m 37.124599,51.643531 1.52591,-1.549835 -10.6698,-10.83068 -1.52559,1.549831 z"
       id="path95" />
    <path
       style="fill:#ffffff;fill-rule:evenodd;stroke:none;stroke-width:0.32937;stroke-miterlimit:4"
       d="M 49.313558,51.643531 50.839146,50.093696 40.17642,39.263016 38.650509,40.812847 49.313558,51.643531"
       id="path97" />
    <path
       style="fill:#190c80;fill-rule:evenodd;stroke:none;stroke-width:0.32937;stroke-miterlimit:4"
       d="m 40.17642,64.02729 -1.525911,-1.549832 10.663049,-10.833927 1.525588,1.54951 z"
       id="path99" />
    <path
       style="fill:#ffffff;fill-rule:evenodd;stroke:none;stroke-width:0.32937;stroke-miterlimit:4"
       d="m 27.980709,64.02729 -1.52559,-1.549832 10.66948,-10.833927 1.52591,1.54951 -10.6698,10.834249"
       id="path101" />
    <path
       style="fill:#190c80;fill-rule:evenodd;stroke:none;stroke-width:0.32937;stroke-miterlimit:4"
       d="M 49.313558,2.1185475 50.839146,3.6682192 40.17642,14.499063 38.650509,12.949067 Z"
       id="path111" />
    <path
       style="fill:#190c80;fill-rule:evenodd;stroke:none;stroke-width:0.32937;stroke-miterlimit:4"
       d="M 44.740002,2.1185475 50.839146,8.3104256 44.740002,14.499063 38.650509,8.3104256 Z"
       id="path113" />
    <path
       style="fill:#ffffff;fill-rule:evenodd;stroke:none;stroke-width:0.32937;stroke-miterlimit:4"
       d="m 37.124599,2.1185475 1.52591,1.5496717 -10.6698,10.8308438 -1.52559,-1.549996 10.66948,-10.8305195"
       id="path115" />
    <path
       style="fill:#ffffff;fill-rule:evenodd;stroke:none;stroke-width:0.32937;stroke-miterlimit:4"
       d="M 32.551046,2.1185475 38.650509,8.3104256 32.551046,14.499063 26.455119,8.3104256 32.551046,2.1185475"
       id="path117" />
    <path
       style="fill:#190c80;fill-rule:evenodd;stroke:none;stroke-width:0.32937;stroke-miterlimit:4"
       d="M 3.5998977,14.499063 2.0775243,16.045006 12.740732,26.879254 14.266161,25.336552 Z"
       id="path119" />
    <path
       style="fill:#190c80;fill-rule:evenodd;stroke:none;stroke-width:0.32937;stroke-miterlimit:4"
       d="m 8.1769892,14.499063 -6.0994649,6.191555 6.0994649,6.188636 6.0891718,-6.188636 z"
       id="path121" />
    <path
       style="fill:#ffffff;fill-rule:evenodd;stroke:none;stroke-width:0.32937;stroke-miterlimit:4"
       d="m 15.791911,14.499063 -1.52575,1.545943 10.669962,10.834248 1.518996,-1.542702 -10.663208,-10.837489"
       id="path123" />
    <path
       style="fill:#ffffff;fill-rule:evenodd;stroke:none;stroke-width:0.32937;stroke-miterlimit:4"
       d="m 20.365786,14.499063 -6.099625,6.191555 6.099625,6.188636 6.089333,-6.188636 -6.089333,-6.191555"
       id="path125" />
    <path
       style="fill:#190c80;fill-rule:evenodd;stroke:none;stroke-width:0.32937;stroke-miterlimit:4"
       d="m 27.980709,14.499063 -1.52559,1.545943 10.66948,10.834248 1.52591,-1.542702 z"
       id="path127" />
    <path
       style="fill:#190c80;fill-rule:evenodd;stroke:none;stroke-width:0.32937;stroke-miterlimit:4"
       d="m 32.551046,14.499063 -6.095927,6.191555 6.095927,6.188636 6.099463,-6.188636 z"
       id="path129" />
    <path
       style="fill:#ffffff;fill-rule:evenodd;stroke:none;stroke-width:0.32937;stroke-miterlimit:4"
       d="M 40.17642,14.499063 38.650509,16.045006 49.313558,26.879254 50.839146,25.336552 40.17642,14.499063"
       id="path131" />
    <path
       style="fill:#ffffff;fill-rule:evenodd;stroke:none;stroke-width:0.32937;stroke-miterlimit:4"
       d="m 44.740002,14.499063 -6.089493,6.191555 6.089493,6.188636 6.099144,-6.188636 -6.099144,-6.191555"
       id="path133" />
    <path
       style="fill:#190c80;fill-rule:evenodd;stroke:none;stroke-width:0.32937;stroke-miterlimit:4"
       d="M 24.936123,2.1185475 26.455119,3.6682192 15.791911,14.499063 14.266161,12.949067 Z"
       id="path135" />
    <path
       style="fill:#190c80;fill-rule:evenodd;stroke:none;stroke-width:0.32937;stroke-miterlimit:4"
       d="M 20.365786,2.1185475 26.455119,8.3104256 20.365786,14.499063 14.266161,8.3104256 Z"
       id="path137" />
    <path
       style="fill:#ffffff;fill-rule:evenodd;stroke:none;stroke-width:0.32937;stroke-miterlimit:4"
       d="M 12.740732,2.1185475 14.266161,3.6682192 3.5998977,14.499063 2.0775243,12.949067 12.740732,2.1185475"
       id="path139" />
    <path
       style="fill:#ffffff;fill-rule:evenodd;stroke:none;stroke-width:0.32937;stroke-miterlimit:4"
       d="M 8.1769892,2.1185475 14.266161,8.3104256 8.1769892,14.499063 2.0775243,8.3104256 8.1769892,2.1185475"
       id="path141" />
    <path
       style="fill:#190c80;fill-rule:evenodd;stroke:none;stroke-width:0.32937;stroke-miterlimit:4"
       d="m 24.936123,64.02729 1.518996,-1.549832 -10.663208,-10.833927 -1.52575,1.54951 z"
       id="path151" />
    <path
       style="fill:#190c80;fill-rule:evenodd;stroke:none;stroke-width:0.32937;stroke-miterlimit:4"
       d="m 20.365786,64.02729 6.089333,-6.195445 -6.089333,-6.188314 -6.099625,6.188314 z"
       id="path153" />
    <path
       style="fill:#ffffff;fill-rule:evenodd;stroke:none;stroke-width:0.32937;stroke-miterlimit:4"
       d="M 12.740732,64.02729 14.266161,62.477458 3.5998977,51.643531 2.0775243,53.193041 12.740732,64.02729"
       id="path155" />
    <path
       style="fill:#ffffff;fill-rule:evenodd;stroke:none;stroke-width:0.32937;stroke-miterlimit:4"
       d="M 8.1769892,64.02729 14.266161,57.831845 8.1769892,51.643531 2.0775243,57.831845 8.1769892,64.02729"
       id="path157" />
    <path
       style="fill:#190c80;fill-rule:evenodd;stroke:none;stroke-width:0.32937;stroke-miterlimit:4"
       d="M 8.1769892,51.643531 2.0775243,45.454894 8.1769892,39.263016 14.266161,45.454894 Z"
       id="path159" />
    <path
       style="fill:#ffffff;fill-rule:evenodd;stroke:none;stroke-width:0.32937;stroke-miterlimit:4"
       d="m 15.791911,51.643531 -1.52575,-1.549835 10.669962,-10.83068 1.518996,1.549831 -10.663208,10.830684"
       id="path161" />
    <path
       style="fill:#ffffff;fill-rule:evenodd;stroke:none;stroke-width:0.32937;stroke-miterlimit:4"
       d="m 20.365786,51.643531 -6.099625,-6.188637 6.099625,-6.191878 6.089333,6.191878 -6.089333,6.188637"
       id="path163" />
    <path
       style="fill:#190c80;fill-rule:evenodd;stroke:none;stroke-width:0.32937;stroke-miterlimit:4"
       d="M 49.313558,39.263016 50.839146,37.716746 40.17642,26.879254 38.650509,28.42909 Z"
       id="path165" />
    <path
       style="fill:#190c80;fill-rule:evenodd;stroke:none;stroke-width:0.32937;stroke-miterlimit:4"
       d="m 44.740002,39.263016 6.099144,-6.191882 -6.099144,-6.19188 -6.089493,6.19188 z"
       id="path167" />
    <path
       style="fill:#ffffff;fill-rule:evenodd;stroke:none;stroke-width:0.32937;stroke-miterlimit:4"
       d="m 37.124599,39.263016 1.52591,-1.54627 -10.6698,-10.837492 -1.52559,1.549836 10.66948,10.833926"
       id="path169" />
    <path
       style="fill:#ffffff;fill-rule:evenodd;stroke:none;stroke-width:0.32937;stroke-miterlimit:4"
       d="m 32.551046,39.263016 6.099463,-6.191882 -6.099463,-6.19188 -6.095927,6.19188 6.095927,6.191882"
       id="path171" />
    <path
       style="fill:#190c80;fill-rule:evenodd;stroke:none;stroke-width:0.32937;stroke-miterlimit:4"
       d="m 24.936123,39.263016 1.518996,-1.54627 -10.663208,-10.837492 -1.52575,1.549836 z"
       id="path173" />
    <path
       style="fill:#190c80;fill-rule:evenodd;stroke:none;stroke-width:0.32937;stroke-miterlimit:4"
       d="m 20.365786,39.263016 6.089333,-6.191882 -6.089333,-6.19188 -6.099625,6.19188 z"
       id="path175" />
    <path
       style="fill:#ffffff;fill-rule:evenodd;stroke:none;stroke-width:0.32937;stroke-miterlimit:4"
       d="M 12.740732,39.263016 14.266161,37.716746 3.5998977,26.879254 2.0775243,28.42909 12.740732,39.263016"
       id="path177" />
    <path
       style="fill:#ffffff;fill-rule:evenodd;stroke:none;stroke-width:0.32937;stroke-miterlimit:4"
       d="m 8.1769892,39.263016 6.0891718,-6.191882 -6.0891718,-6.19188 -6.0994649,6.19188 6.0994649,6.191882"
       id="path179" />
    <path
       style="fill:#190c80;fill-rule:evenodd;stroke:none;stroke-width:0.32937;stroke-miterlimit:4"
       d="m 27.980709,51.643531 -1.52559,-1.549835 10.66948,-10.83068 1.52591,1.549831 z"
       id="path181" />
    <path
       style="fill:#190c80;fill-rule:evenodd;stroke:none;stroke-width:0.32937;stroke-miterlimit:4"
       d="m 32.551046,51.643531 -6.095927,-6.188637 6.095927,-6.191878 6.099463,6.191878 z"
       id="path183" />
    <path
       style="fill:#ffffff;fill-rule:evenodd;stroke:none;stroke-width:0.32937;stroke-miterlimit:4"
       d="M 40.17642,51.643531 38.650509,50.093696 49.313558,39.263016 50.839146,40.812847 40.17642,51.643531"
       id="path185" />
    <path
       style="fill:#ffffff;fill-rule:evenodd;stroke:none;stroke-width:0.32937;stroke-miterlimit:4"
       d="m 44.740002,51.643531 -6.089493,-6.188637 6.089493,-6.191878 6.099144,6.191878 -6.099144,6.188637"
       id="path187" />
    <path
       style="fill:#190c80;fill-rule:evenodd;stroke:none;stroke-width:0.32937;stroke-miterlimit:4"
       d="M 49.313558,64.02729 50.839146,62.477458 40.17642,51.643531 38.650509,53.193041 Z"
       id="path189" />
    <path
       style="fill:#190c80;fill-rule:evenodd;stroke:none;stroke-width:0.32937;stroke-miterlimit:4"
       d="m 44.740002,64.02729 6.099144,-6.195445 -6.099144,-6.188314 -6.089493,6.188314 z"
       id="path191" />
    <path
       style="fill:#ffffff;fill-rule:evenodd;stroke:none;stroke-width:0.32937;stroke-miterlimit:4"
       d="m 37.124599,64.02729 1.52591,-1.549832 -10.6698,-10.833927 -1.52559,1.54951 10.66948,10.834249"
       id="path193" />
    <path
       style="fill:#ffffff;fill-rule:evenodd;stroke:none;stroke-width:0.32937;stroke-miterlimit:4"
       d="m 32.551046,64.02729 6.099463,-6.195445 -6.099463,-6.188314 -6.095927,6.188314 6.095927,6.195445"
       id="path195" />
    <path
       style="fill:#ffffff;fill-rule:evenodd;stroke:none;stroke-width:0.32937;stroke-miterlimit:4"
       d="M 47.791185,11.402961 V 5.0224193 h -6.092711 v 6.3805417 z"
       id="path205" />
    <path
       style="fill:#190c80;fill-rule:evenodd;stroke:none;stroke-width:0.32937;stroke-miterlimit:4"
       d="M 35.602548,11.402961 V 5.0224193 h -6.099466 v 6.3805417 z"
       id="path207" />
    <path
       style="fill:#190c80;fill-rule:evenodd;stroke:none;stroke-width:0.32937;stroke-miterlimit:4"
       d="M 44.740002,5.9892421 47.028228,8.3104256 44.740002,10.628044 42.458213,8.3104256 44.740002,5.9892421"
       id="path209" />
    <path
       style="fill:#ffffff;fill-rule:evenodd;stroke:none;stroke-width:0.32937;stroke-miterlimit:4"
       d="M 32.551046,5.9892421 34.839591,8.3104256 32.551046,10.628044 30.266038,8.3104256 32.551046,5.9892421"
       id="path211" />
    <path
       style="fill:#ffffff;fill-rule:evenodd;stroke:none;stroke-width:0.32937;stroke-miterlimit:4"
       d="M 11.218358,23.78672 V 17.402772 H 5.1254876 v 6.383948 z"
       id="path213" />
    <path
       style="fill:#190c80;fill-rule:evenodd;stroke:none;stroke-width:0.32937;stroke-miterlimit:4"
       d="M 23.410533,23.78672 V 17.402772 H 17.314446 V 23.78672 Z"
       id="path215" />
    <path
       style="fill:#190c80;fill-rule:evenodd;stroke:none;stroke-width:0.32937;stroke-miterlimit:4"
       d="M 8.1769892,18.366192 5.8882825,20.690618 8.1769892,23.015207 10.455403,20.690618 8.1769892,18.366192"
       id="path217" />
    <path
       style="fill:#ffffff;fill-rule:evenodd;stroke:none;stroke-width:0.32937;stroke-miterlimit:4"
       d="m 20.365786,18.366192 -2.288545,2.324426 2.288545,2.324589 2.281791,-2.324589 -2.281791,-2.324426"
       id="path219" />
    <path
       style="fill:#ffffff;fill-rule:evenodd;stroke:none;stroke-width:0.32937;stroke-miterlimit:4"
       d="M 35.602548,23.78672 V 17.402772 H 29.503082 V 23.78672 Z"
       id="path221" />
    <path
       style="fill:#190c80;fill-rule:evenodd;stroke:none;stroke-width:0.32937;stroke-miterlimit:4"
       d="M 47.791185,23.78672 V 17.402772 H 41.698474 V 23.78672 Z"
       id="path223" />
    <path
       style="fill:#190c80;fill-rule:evenodd;stroke:none;stroke-width:0.32937;stroke-miterlimit:4"
       d="m 32.551046,18.366192 -2.285008,2.324426 2.285008,2.324589 2.288545,-2.324589 -2.288545,-2.324426"
       id="path225" />
    <path
       style="fill:#ffffff;fill-rule:evenodd;stroke:none;stroke-width:0.32937;stroke-miterlimit:4"
       d="m 44.740002,18.366192 -2.281789,2.324426 2.281789,2.324589 2.288226,-2.324589 -2.288226,-2.324426"
       id="path227" />
    <path
       style="fill:#ffffff;fill-rule:evenodd;stroke:none;stroke-width:0.32937;stroke-miterlimit:4"
       d="M 23.410533,11.402961 V 5.0224193 h -6.096087 v 6.3805417 z"
       id="path229" />
    <path
       style="fill:#190c80;fill-rule:evenodd;stroke:none;stroke-width:0.32937;stroke-miterlimit:4"
       d="M 11.218358,11.402961 V 5.0224193 H 5.1254876 v 6.3805417 z"
       id="path231" />
    <path
       style="fill:#190c80;fill-rule:evenodd;stroke:none;stroke-width:0.32937;stroke-miterlimit:4"
       d="M 20.365786,5.9892421 22.647577,8.3104256 20.365786,10.628044 18.077241,8.3104256 20.365786,5.9892421"
       id="path233" />
    <path
       style="fill:#ffffff;fill-rule:evenodd;stroke:none;stroke-width:0.32937;stroke-miterlimit:4"
       d="M 8.1769892,5.9892421 10.455403,8.3104256 8.1769892,10.628044 5.8882825,8.3104256 8.1769892,5.9892421"
       id="path235" />
    <path
       style="fill:#ffffff;fill-rule:evenodd;stroke:none;stroke-width:0.32937;stroke-miterlimit:4"
       d="m 23.410533,61.119852 v -6.376979 h -6.096087 v 6.376979 z"
       id="path245" />
    <path
       style="fill:#190c80;fill-rule:evenodd;stroke:none;stroke-width:0.32937;stroke-miterlimit:4"
       d="M 11.218358,61.119852 V 54.742873 H 5.1254876 v 6.376979 z"
       id="path247" />
    <path
       style="fill:#190c80;fill-rule:evenodd;stroke:none;stroke-width:0.32937;stroke-miterlimit:4"
       d="m 20.365786,60.156434 2.281791,-2.324589 -2.281791,-2.317459 -2.288545,2.317459 2.288545,2.324589"
       id="path249" />
    <path
       style="fill:#ffffff;fill-rule:evenodd;stroke:none;stroke-width:0.32937;stroke-miterlimit:4"
       d="M 8.1769892,60.156434 10.455403,57.831845 8.1769892,55.514386 5.8882825,57.831845 8.1769892,60.156434"
       id="path251" />
    <path
       style="fill:#190c80;fill-rule:evenodd;stroke:none;stroke-width:0.32937;stroke-miterlimit:4"
       d="m 23.410533,48.742901 v -6.383787 h -6.096087 v 6.383787 z"
       id="path253" />
    <path
       style="fill:#ffffff;fill-rule:evenodd;stroke:none;stroke-width:0.32937;stroke-miterlimit:4"
       d="m 20.365786,47.775915 -2.288545,-2.321021 2.288545,-2.324266 2.281791,2.324266 -2.281791,2.321021"
       id="path255" />
    <path
       style="fill:#ffffff;fill-rule:evenodd;stroke:none;stroke-width:0.32937;stroke-miterlimit:4"
       d="m 47.791185,36.359143 v -6.387027 h -6.092711 v 6.387027 z"
       id="path257" />
    <path
       style="fill:#190c80;fill-rule:evenodd;stroke:none;stroke-width:0.32937;stroke-miterlimit:4"
       d="m 35.602548,36.359143 v -6.387027 h -6.099466 v 6.387027 z"
       id="path259" />
    <path
       style="fill:#190c80;fill-rule:evenodd;stroke:none;stroke-width:0.32937;stroke-miterlimit:4"
       d="m 44.740002,35.3954 2.288226,-2.324266 -2.288226,-2.324264 -2.281789,2.324264 2.281789,2.324266"
       id="path261" />
    <path
       style="fill:#ffffff;fill-rule:evenodd;stroke:none;stroke-width:0.32937;stroke-miterlimit:4"
       d="m 32.551046,35.3954 2.288545,-2.324266 -2.288545,-2.324264 -2.285008,2.324264 2.285008,2.324266"
       id="path263" />
    <path
       style="fill:#ffffff;fill-rule:evenodd;stroke:none;stroke-width:0.32937;stroke-miterlimit:4"
       d="m 23.410533,36.359143 v -6.387027 h -6.096087 v 6.387027 z"
       id="path265" />
    <path
       style="fill:#190c80;fill-rule:evenodd;stroke:none;stroke-width:0.32937;stroke-miterlimit:4"
       d="M 11.218358,36.359143 V 29.972116 H 5.1254876 v 6.387027 z"
       id="path267" />
    <path
       style="fill:#190c80;fill-rule:evenodd;stroke:none;stroke-width:0.32937;stroke-miterlimit:4"
       d="m 20.365786,35.3954 2.281791,-2.324266 -2.281791,-2.324264 -2.288545,2.324264 2.288545,2.324266"
       id="path269" />
    <path
       style="fill:#ffffff;fill-rule:evenodd;stroke:none;stroke-width:0.32937;stroke-miterlimit:4"
       d="M 8.1769892,35.3954 10.455403,33.071134 8.1769892,30.74687 5.8882825,33.071134 8.1769892,35.3954"
       id="path271" />
    <path
       style="fill:#ffffff;fill-rule:evenodd;stroke:none;stroke-width:0.32937;stroke-miterlimit:4"
       d="m 35.602548,48.742901 v -6.383787 h -6.099466 v 6.383787 z"
       id="path273" />
    <path
       style="fill:#190c80;fill-rule:evenodd;stroke:none;stroke-width:0.32937;stroke-miterlimit:4"
       d="m 47.791185,48.742901 v -6.383787 h -6.092711 v 6.383787 z"
       id="path275" />
    <path
       style="fill:#190c80;fill-rule:evenodd;stroke:none;stroke-width:0.32937;stroke-miterlimit:4"
       d="m 32.551046,47.775915 -2.285008,-2.321021 2.285008,-2.324266 2.288545,2.324266 -2.288545,2.321021"
       id="path277" />
    <path
       style="fill:#ffffff;fill-rule:evenodd;stroke:none;stroke-width:0.32937;stroke-miterlimit:4"
       d="m 44.740002,47.775915 -2.281789,-2.321021 2.281789,-2.324266 2.288226,2.324266 -2.288226,2.321021"
       id="path279" />
    <path
       style="fill:#ffffff;fill-rule:evenodd;stroke:none;stroke-width:0.32937;stroke-miterlimit:4"
       d="m 47.791185,61.119852 v -6.376979 h -6.092711 v 6.376979 z"
       id="path281" />
    <path
       style="fill:#190c80;fill-rule:evenodd;stroke:none;stroke-width:0.32937;stroke-miterlimit:4"
       d="m 35.602548,61.119852 v -6.376979 h -6.099466 v 6.376979 z"
       id="path283" />
    <path
       style="fill:#190c80;fill-rule:evenodd;stroke:none;stroke-width:0.32937;stroke-miterlimit:4"
       d="m 44.740002,60.156434 2.288226,-2.324589 -2.288226,-2.317459 -2.281789,2.317459 2.281789,2.324589"
       id="path285" />
    <path
       style="fill:#ffffff;fill-rule:evenodd;stroke:none;stroke-width:0.32937;stroke-miterlimit:4"
       d="m 32.551046,60.156434 2.288545,-2.324589 -2.288545,-2.317459 -2.285008,2.317459 2.285008,2.324589"
       id="path287" />
    <path
       style="fill:#190c80;fill-rule:evenodd;stroke:none;stroke-width:0.32937;stroke-miterlimit:4"
       d="M 3.5998977,51.643531 2.0775243,50.093696 12.740732,39.263016 14.266161,40.812847 Z"
       id="path289" />
    <path
       style="fill:#ffffff;fill-rule:evenodd;stroke:none;stroke-width:0.32937;stroke-miterlimit:4"
       d="M 11.218358,48.742901 V 42.359114 H 5.1254876 v 6.383787 z"
       id="path291" />
    <path
       style="fill:#190c80;fill-rule:evenodd;stroke:none;stroke-width:0.32937;stroke-miterlimit:4"
       d="M 8.1769892,47.775915 5.8882825,45.454894 8.1769892,43.130628 10.455403,45.454894 8.1769892,47.775915"
       id="path293" />
  </g>
</svg>
