<?xml version="1.0" encoding="UTF-8" standalone="no"?>
<!-- Created with Inkscape (http://www.inkscape.org/) -->

<svg
   width="52.916668mm"
   height="66.145836mm"
   viewBox="0 0 52.916668 66.145836"
   version="1.1"
   id="svg1"
   sodipodi:docname="c5.svg"
   inkscape:version="1.3.2 (091e20e, 2023-11-25)"
   xmlns:inkscape="http://www.inkscape.org/namespaces/inkscape"
   xmlns:sodipodi="http://sodipodi.sourceforge.net/DTD/sodipodi-0.dtd"
   xmlns="http://www.w3.org/2000/svg"
   xmlns:svg="http://www.w3.org/2000/svg">
  <sodipodi:namedview
     id="namedview1"
     pagecolor="#505050"
     bordercolor="#ffffff"
     borderopacity="1"
     inkscape:showpageshadow="0"
     inkscape:pageopacity="0"
     inkscape:pagecheckerboard="1"
     inkscape:deskcolor="#d1d1d1"
     inkscape:document-units="mm"
     inkscape:zoom="0.94399996"
     inkscape:cx="99.576275"
     inkscape:cy="125"
     inkscape:window-width="1344"
     inkscape:window-height="424"
     inkscape:window-x="221"
     inkscape:window-y="44"
     inkscape:window-maximized="0"
     inkscape:current-layer="svg1" />
  <defs
     id="defs1" />
  <g
     id="layer1"
     transform="translate(-180.39394,-647.93443)">
    <g
       id="g48"
       transform="translate(-197.66543,201.6051)">
      <g
         id="path3229-6-3-4-7-6-4-3-7-3-0-4-4">
        <path
           style="color:#000000;fill:#ffffff;fill-rule:evenodd;-inkscape-stroke:none"
           d="m 430.71144,448.97512 c 0,-1.32291 -1.05834,-2.38125 -2.38125,-2.38125 h -47.625 c -1.32291,0 -2.38125,1.05834 -2.38125,2.38125 v 60.85417 c 0,1.32292 1.05834,2.38125 2.38125,2.38125 h 47.625 c 1.32291,0 2.38125,-1.05833 2.38125,-2.38125 z"
           id="path1" />
        <path
           style="color:#000000;fill:#000000;fill-rule:evenodd;-inkscape-stroke:none"
           d="m 380.70508,446.33008 c -1.46402,0 -2.64649,1.18051 -2.64649,2.64453 v 60.85547 c 0,1.46403 1.18247,2.64453 2.64649,2.64453 h 47.625 c 1.46402,0 2.64648,-1.1805 2.64648,-2.64453 v -60.85547 c 0,-1.46402 -1.18246,-2.64453 -2.64648,-2.64453 z m 0,0.52929 h 47.625 c 1.18179,0 2.11719,0.93344 2.11719,2.11524 v 60.85547 c 0,1.18181 -0.93539,2.11523 -2.11719,2.11523 h -47.625 c -1.1818,0 -2.11719,-0.93342 -2.11719,-2.11523 v -60.85547 c 0,-1.1818 0.93539,-2.11523 2.11719,-2.11524 z"
           id="path2" />
      </g>
      <g
         id="g2-5-4-6-6-5-3-7-4"
         transform="matrix(2.0944075,0,0,2.1214952,317.32657,463.69542)"
         style="stroke-width:0.474404">
        <g
           id="path5014-5-4-0-1-4-7-9-6-4">
          <path
             style="color:#000000;fill:#000000;fill-rule:evenodd;-inkscape-stroke:none"
             d="m 40.659491,9.1102766 c -1.674376,-0.9087849 -2.511564,-5.7556399 1.395313,-5.7556399 3.906876,0 3.069688,4.846855 1.395313,5.7556399 1.116252,-0.9087849 4.744065,-2.1204988 4.744065,2.1204994 0,4.240997 -5.023127,3.938069 -5.30219,0.605856 h -0.558125 c 0,0 0.279062,3.332213 1.11625,4.846855 h -2.790626 c 0.837189,-1.514642 1.11625,-4.846855 1.11625,-4.846855 h -0.558124 c -0.279063,3.332213 -5.581253,3.635141 -5.581253,-0.605856 0,-3.6351412 3.906877,-3.0292843 5.023127,-2.1204994 z"
             id="path3" />
          <path
             style="color:#000000;fill:#000000;fill-rule:evenodd;-inkscape-stroke:none"
             d="m 42.054687,3.2910156 c -0.989694,0 -1.68903,0.3090446 -2.146484,0.7910156 -0.457454,0.4819711 -0.671566,1.1329246 -0.707031,1.8066407 -0.03547,0.673716 0.106511,1.3737449 0.363281,1.9648437 0.21501,0.4949631 0.543523,0.836692 0.890625,1.0996094 -0.636134,-0.407386 -1.70707,-0.7234035 -2.736328,-0.5488281 -0.568751,0.096467 -1.106994,0.3398724 -1.501953,0.7929687 -0.394959,0.4530963 -0.642578,1.1131774 -0.642578,2.0332034 0,1.073325 0.335872,1.867908 0.849609,2.396484 0.513737,0.528576 1.201715,0.789256 1.896484,0.808594 1.369366,0.03811 2.752968,-0.884809 2.929688,-2.537109 h 0.455078 c -0.0049,0.0566 -0.06863,0.800193 -0.236328,1.783203 -0.17393,1.019546 -0.452685,2.227852 -0.863281,2.970703 l -0.05273,0.09375 h 3.003907 l -0.05078,-0.09375 c -0.410595,-0.742851 -0.691304,-1.951157 -0.865234,-2.970703 -0.167697,-0.98301 -0.231477,-1.726602 -0.236328,-1.783203 h 0.453125 c 0.174418,1.650902 1.490721,2.575315 2.792969,2.537109 0.660672,-0.01938 1.31358,-0.28168 1.800781,-0.810547 0.487201,-0.528867 0.806641,-1.321894 0.80664,-2.394531 0,-1.069196 -0.229077,-1.8021083 -0.597656,-2.2851565 -0.368579,-0.4830482 -0.875926,-0.7093742 -1.412109,-0.7675781 -0.95348,-0.1035023 -1.940893,0.31779 -2.564453,0.7382812 0.332134,-0.2642021 0.653502,-0.5840734 0.861328,-1.0625 0.25677,-0.5910988 0.398746,-1.2911277 0.363281,-1.9648437 C 44.872738,5.2149558 44.658626,4.5640023 44.201172,4.0820312 43.743718,3.6000602 43.044382,3.2910156 42.054687,3.2910156 Z m 0,0.1269532 c 0.963742,0 1.624584,0.2967402 2.056641,0.7519531 0.432057,0.4552128 0.637575,1.0730148 0.671875,1.7246093 0.0343,0.6515946 -0.104485,1.3349221 -0.353516,1.9082032 -0.24903,0.5732811 -0.609801,1.0348681 -1.009765,1.2519531 l 0.002,0.00195 c -0.0027,0.00219 -0.009,0.00367 -0.01172,0.00586 l 0.07031,0.1035156 c 0.0032,-0.00176 0.0046,-0.00798 0.0078,-0.00977 l 0.002,0.00195 c 0.542902,-0.4419974 1.723541,-0.9682102 2.744141,-0.8574218 0.5103,0.055394 0.979654,0.2665674 1.326172,0.7207031 0.346518,0.4541357 0.570312,1.1576836 0.570312,2.2089846 0,1.047859 -0.308129,1.807565 -0.771484,2.310547 -0.463355,0.502981 -1.0829,0.751048 -1.712891,0.769531 -1.259982,0.03697 -2.554475,-0.84346 -2.691406,-2.478516 l -0.0059,-0.05859 h -0.683594 l 0.0059,0.06836 c 0,0 0.06924,0.836109 0.244141,1.861328 0.169555,0.9939 0.44679,2.144122 0.851562,2.917969 h -2.625 c 0.404774,-0.773847 0.682008,-1.924069 0.851563,-2.917969 0.174898,-1.025219 0.244141,-1.861328 0.244141,-1.861328 l 0.0059,-0.06836 h -0.683594 l -0.0059,0.05859 c -0.136786,1.633322 -1.498759,2.515572 -2.830078,2.478516 -0.66566,-0.01853 -1.321404,-0.268212 -1.810547,-0.771484 -0.489143,-0.503273 -0.814453,-1.261423 -0.814453,-2.308594 0,-0.897543 0.240818,-1.5238836 0.613281,-1.9511721 0.372463,-0.4272886 0.880236,-0.6571374 1.427734,-0.75 1.094997,-0.1857254 2.343288,0.1928367 2.878907,0.6289062 l 0.002,-0.00195 c 0.0032,0.00178 0.0046,0.00801 0.0078,0.00977 L 40.699219,9.0625 c -0.0027,-0.0022 -0.009,-0.00366 -0.01172,-0.00586 l 0.002,-0.00195 C 40.289488,8.8376025 39.928718,8.3760155 39.679687,7.8027344 39.430657,7.2294533 39.291871,6.5461257 39.326172,5.8945312 39.360472,5.2429368 39.56599,4.6251347 39.998047,4.1699219 40.430104,3.714709 41.090946,3.4179688 42.054687,3.4179688 Z"
             id="path4" />
        </g>
      </g>
      <g
         id="g2-3-8-5-6-7-0-6-4-3"
         transform="matrix(0.95461259,0,0,0.97109781,381.69471,446.10072)"
         style="stroke-width:1.03861">
        <g
           id="path5014-2-2-0-1-73-1-5-6-5">
          <path
             style="color:#000000;fill:#000000;fill-rule:evenodd;-inkscape-stroke:none"
             d="m 40.659491,9.1102766 c -1.674376,-0.9087849 -2.511564,-5.7556399 1.395313,-5.7556399 3.906876,0 3.069688,4.846855 1.395313,5.7556399 1.116252,-0.9087849 4.744065,-2.1204988 4.744065,2.1204994 0,4.240997 -5.023127,3.938069 -5.30219,0.605856 h -0.558125 c 0,0 0.279062,3.332213 1.11625,4.846855 h -2.790626 c 0.837189,-1.514642 1.11625,-4.846855 1.11625,-4.846855 h -0.558124 c -0.279063,3.332213 -5.581253,3.635141 -5.581253,-0.605856 0,-3.6351412 3.906877,-3.0292843 5.023127,-2.1204994 z"
             id="path5" />
          <path
             style="color:#000000;fill:#000000;fill-rule:evenodd;-inkscape-stroke:none"
             d="m 42.054687,3.2167969 c -1.005127,0 -1.728615,0.3165704 -2.201171,0.8144531 -0.472557,0.4978827 -0.690405,1.1666451 -0.726563,1.8535156 -0.03616,0.6868706 0.107768,1.3963529 0.369141,1.9980469 0.170363,0.3921864 0.455294,0.6150629 0.714843,0.8789063 -0.673111,-0.3400858 -1.578065,-0.586722 -2.503906,-0.4296875 -0.581389,0.098611 -1.138538,0.3479634 -1.546875,0.8164062 -0.408336,0.4684428 -0.662109,1.1486355 -0.662109,2.0820315 0,1.088878 0.344685,1.905595 0.873047,2.449219 0.528361,0.543623 1.235186,0.812211 1.947265,0.832031 1.384988,0.03855 2.788807,-0.888569 3,-2.53711 h 0.300782 c -0.01059,0.119967 -0.06343,0.761924 -0.222657,1.695313 -0.173354,1.016173 -0.456337,2.221624 -0.857422,2.947265 l -0.113281,0.203125 h 3.257813 l -0.113282,-0.203125 c -0.401083,-0.725641 -0.684067,-1.931092 -0.857421,-2.947265 -0.159232,-0.933389 -0.212067,-1.575346 -0.222657,-1.695313 h 0.328125 c 0.216044,1.631835 1.519215,2.575683 2.833985,2.53711 0.678917,-0.01992 1.352134,-0.291678 1.853515,-0.835938 0.501382,-0.54426 0.826172,-1.357941 0.826172,-2.445312 0,-1.079838 -0.231583,-1.8317905 -0.613281,-2.3320315 C 47.337052,8.3981965 46.807435,8.1633903 46.255859,8.1035156 45.416664,8.0124192 44.602975,8.323597 43.962891,8.6796875 44.191808,8.4263733 44.458603,8.2388901 44.613281,7.8828125 44.874654,7.2811185 45.018579,6.5716362 44.982422,5.8847656 44.946264,5.1978951 44.728416,4.5291327 44.255859,4.03125 43.783303,3.5333673 43.059815,3.2167969 42.054687,3.2167969 Z m 0,0.2753906 c 0.948309,0 1.584999,0.2892145 2.001954,0.7285156 0.416954,0.4393012 0.618735,1.0392944 0.652343,1.6777344 0.03361,0.63844 -0.103228,1.3123141 -0.347656,1.875 -0.244428,0.5626859 -0.598753,1.0117368 -0.976562,1.2167969 l 0.002,0.00195 c -0.0055,0.00444 -0.018,0.00729 -0.02344,0.011719 l 0.152344,0.2265625 c 0.0073,-0.00398 0.01028,-0.017376 0.01758,-0.021484 l 0.0039,0.00781 C 44.061905,8.7895402 45.236745,8.2675532 46.226562,8.375 46.721471,8.4287234 47.166601,8.6294633 47.5,9.0664063 c 0.333399,0.4369429 0.556641,1.1234027 0.556641,2.1640627 0,1.033125 -0.302779,1.772177 -0.751954,2.259765 -0.449174,0.487589 -1.048409,0.728146 -1.660156,0.746094 -1.223493,0.0359 -2.481395,-0.81398 -2.615234,-2.412109 l -0.01172,-0.125 h -0.833984 l 0.01367,0.148437 c 0,0 0.07062,0.838596 0.246093,1.867188 0.163742,0.959822 0.440944,2.044928 0.828125,2.832031 h -2.433593 c 0.38719,-0.787105 0.666334,-1.872197 0.830078,-2.832031 0.175473,-1.028592 0.24414,-1.867188 0.24414,-1.867188 l 0.01367,-0.148437 h -0.833984 l -0.01172,0.125 c -0.133521,1.594334 -1.457207,2.448201 -2.753906,2.412109 -0.648349,-0.01805 -1.283294,-0.259821 -1.757813,-0.748047 -0.474518,-0.488225 -0.794922,-1.226194 -0.794922,-2.257812 0,-0.884173 0.234665,-1.4904019 0.59375,-1.902344 0.359086,-0.4119421 0.849906,-0.6358434 1.384766,-0.7265625 1.069721,-0.1814382 2.311459,0.2009557 2.820313,0.6152344 l 0.0039,-0.00781 c 0.0073,0.00411 0.01024,0.017502 0.01758,0.021484 l 0.152344,-0.2265625 c -0.0053,-0.00435 -0.01799,-0.00543 -0.02344,-0.00977 l 0.002,-0.00391 C 40.3468,8.7851743 39.992475,8.3361234 39.748047,7.7734375 c -0.244428,-0.5626859 -0.379311,-1.23656 -0.345703,-1.875 0.03361,-0.63844 0.233436,-1.2384332 0.65039,-1.6777344 0.416955,-0.4393011 1.053645,-0.7285156 2.001953,-0.7285156 z"
             id="path6" />
        </g>
      </g>
      <path
         d="m 367.60665,475.60394 0.98836,-5.80659 q 0.70596,0.0883 1.37663,0.14119 0.67067,0.053 1.32369,0.053 1.83552,0 2.54149,-0.60007 h 0.21179 q -0.81186,2.0826 -2.96507,2.0826 -0.9707,0 -1.83551,-0.19414 l -0.56478,3.24746 q 0.81187,-0.49418 1.81787,-0.49418 3.70633,0 3.70633,3.90047 0,3.90047 -4.4476,3.90047 -2.70032,0 -2.70032,-1.48253 0,-0.65302 0.54712,-0.65302 0.52948,0 0.52948,0.52948 0,0.28238 -0.26474,0.45888 0.37063,0.47652 1.62373,0.47652 3.01801,0 3.01801,-3.2298 0,-2.94742 -2.47089,-2.94742 -1.21779,0 -1.83552,0.88246 z"
         id="text8-6"
         style="-inkscape-font-specification:'Marion, Normal';stroke-width:0.264583"
         transform="scale(1.0447178,0.95719628)"
         aria-label="5" />
    </g>
  </g>
</svg>
