<?xml version="1.0" encoding="UTF-8" standalone="no"?>
<!-- Created with Inkscape (http://www.inkscape.org/) -->

<svg
   width="52.916668mm"
   height="66.145836mm"
   viewBox="0 0 52.916668 66.145836"
   version="1.1"
   id="svg1"
   sodipodi:docname="cj.svg"
   inkscape:version="1.3.2 (091e20e, 2023-11-25)"
   xmlns:inkscape="http://www.inkscape.org/namespaces/inkscape"
   xmlns:sodipodi="http://sodipodi.sourceforge.net/DTD/sodipodi-0.dtd"
   xmlns:xlink="http://www.w3.org/1999/xlink"
   xmlns="http://www.w3.org/2000/svg"
   xmlns:svg="http://www.w3.org/2000/svg">
  <sodipodi:namedview
     id="namedview1"
     pagecolor="#505050"
     bordercolor="#ffffff"
     borderopacity="1"
     inkscape:showpageshadow="0"
     inkscape:pageopacity="0"
     inkscape:pagecheckerboard="1"
     inkscape:deskcolor="#d1d1d1"
     inkscape:document-units="mm"
     inkscape:zoom="0.94399996"
     inkscape:cx="99.576275"
     inkscape:cy="125"
     inkscape:window-width="1344"
     inkscape:window-height="424"
     inkscape:window-x="221"
     inkscape:window-y="44"
     inkscape:window-maximized="0"
     inkscape:current-layer="svg1" />
  <defs
     id="defs1">
    <linearGradient
       id="linearGradient3857">
      <stop
         id="stop3859"
         offset="0.0000000"
         style="stop-color:#ffd8c1;stop-opacity:1.0000000;" />
      <stop
         id="stop3861"
         offset="1.0000000"
         style="stop-color:#ffeded;stop-opacity:1.0000000;" />
    </linearGradient>
    <linearGradient
       id="linearGradient5407">
      <stop
         id="stop5409"
         offset="0.0000000"
         style="stop-color:#f0eb00;stop-opacity:1.0000000;" />
      <stop
         id="stop5411"
         offset="1.0000000"
         style="stop-color:#ffff00;stop-opacity:1.0000000;" />
    </linearGradient>
    <linearGradient
       id="linearGradient6214">
      <stop
         id="stop6216"
         offset="0.0000000"
         style="stop-color:#c10000;stop-opacity:1.0000000;" />
      <stop
         id="stop6218"
         offset="1.0000000"
         style="stop-color:#ff433e;stop-opacity:1.0000000;" />
    </linearGradient>
    <linearGradient
       id="linearGradient2580">
      <stop
         id="stop2582"
         offset="0"
         style="stop-color:#ffffff;stop-opacity:1;" />
      <stop
         id="stop2584"
         offset="1"
         style="stop-color:#ffffff;stop-opacity:0;" />
    </linearGradient>
    <linearGradient
       id="linearGradient4408">
      <stop
         id="stop4410"
         offset="0.0000000"
         style="stop-color:#ff44ab;stop-opacity:1.0000000;" />
      <stop
         id="stop4412"
         offset="1.0000000"
         style="stop-color:#ff66cc;stop-opacity:1.0000000;" />
    </linearGradient>
    <linearGradient
       id="linearGradient3865">
      <stop
         id="stop3867"
         offset="0"
         style="stop-color:#0083cc;stop-opacity:1;" />
      <stop
         id="stop3869"
         offset="1.0000000"
         style="stop-color:#24a4cc;stop-opacity:1.0000000;" />
    </linearGradient>
    <linearGradient
       gradientTransform="matrix(0.186825,0,0,0.144857,-5.33661,38.2251)"
       gradientUnits="userSpaceOnUse"
       id="linearGradient1435"
       x1="356.44232"
       x2="484.79608"
       xlink:href="#linearGradient3857"
       y1="437.49887"
       y2="256.17966" />
    <linearGradient
       gradientTransform="scale(1.140394,0.87689)"
       gradientUnits="userSpaceOnUse"
       id="linearGradient1432"
       x1="51.852074"
       x2="74.325531"
       xlink:href="#linearGradient4408"
       y1="154.54619"
       y2="129.50204" />
    <linearGradient
       gradientTransform="matrix(0.144857,0,0,0.144857,17.45629,51.5584)"
       gradientUnits="userSpaceOnUse"
       id="linearGradient1420"
       x1="294.24606"
       x2="312.09238"
       xlink:href="#linearGradient6214"
       y1="346.32654"
       y2="322.13895" />
    <linearGradient
       gradientTransform="translate(-35.99098,2.4696)"
       gradientUnits="userSpaceOnUse"
       id="linearGradient1413"
       x1="101.39262"
       x2="105.54549"
       xlink:href="#linearGradient5407"
       y1="124.16081"
       y2="120.97331" />
    <linearGradient
       gradientTransform="translate(-40.13643,3.506)"
       gradientUnits="userSpaceOnUse"
       id="linearGradient1410"
       x1="98.818184"
       x2="112.89091"
       xlink:href="#linearGradient3865"
       y1="108.76363"
       y2="103.33409" />
    <linearGradient
       gradientTransform="translate(-39.51848,2.5946)"
       gradientUnits="userSpaceOnUse"
       id="linearGradient1407"
       x1="103.5625"
       x2="111.88306"
       xlink:href="#linearGradient5407"
       y1="65.108551"
       y2="62.671051" />
    <linearGradient
       gradientTransform="translate(-35.99098,2.4696)"
       gradientUnits="userSpaceOnUse"
       id="linearGradient1404"
       x1="93.499947"
       x2="117.13919"
       xlink:href="#linearGradient4408"
       y1="62.938114"
       y2="57.702003" />
    <linearGradient
       gradientUnits="userSpaceOnUse"
       id="linearGradient2286"
       x1="104.75"
       x2="109.5"
       xlink:href="#linearGradient5407"
       y1="57.46875"
       y2="55.78125" />
    <linearGradient
       gradientTransform="matrix(0.186852,0,0,0.144857,-5.33853,38.2367)"
       gradientUnits="userSpaceOnUse"
       id="linearGradient1400"
       x1="652.29529"
       x2="410.90594"
       xlink:href="#linearGradient2580"
       y1="77.394516"
       y2="344.41714" />
  </defs>
  <g
     id="layer1"
     transform="translate(-180.39394,-218.82731)">
    <g
       id="g24"
       transform="translate(-197.40085,202.37926)">
      <g
         id="path3229-6-3-4-7-6-4-3-1">
        <path
           style="color:#000000;fill:#ffffff;fill-rule:evenodd;-inkscape-stroke:none"
           d="m 430.44686,19.093879 c 0,-1.32291 -1.05834,-2.38125 -2.38125,-2.38125 h -47.625 c -1.32291,0 -2.38125,1.05834 -2.38125,2.38125 V 79.94805 c 0,1.32292 1.05834,2.38126 2.38125,2.38126 h 47.625 c 1.32291,0 2.38125,-1.05834 2.38125,-2.38126 z"
           id="path1" />
        <path
           style="color:#000000;fill:#000000;fill-rule:evenodd;-inkscape-stroke:none"
           d="m 380.44141,16.447266 c -1.46403,0 -2.64649,1.182463 -2.64649,2.646484 v 60.853516 c 0,1.46403 1.18246,2.646484 2.64649,2.646484 h 47.625 c 1.46402,0 2.64453,-1.182454 2.64453,-2.646484 V 19.09375 c 0,-1.464021 -1.18051,-2.646484 -2.64453,-2.646484 z m 0,0.529296 h 47.625 c 1.18179,0 2.11523,0.935392 2.11523,2.117188 v 60.853516 c 0,1.181807 -0.93344,2.117187 -2.11523,2.117187 h -47.625 c -1.1818,0 -2.11719,-0.93538 -2.11719,-2.117187 V 19.09375 c 0,-1.181796 0.93539,-2.117188 2.11719,-2.117188 z"
           id="path2" />
      </g>
      <path
         d="m 391.73136,21.390552 q 0,-1.609071 -1.78397,-1.609071 v -0.542187 h 4.98462 v 0.542187 q -1.46915,0 -1.46915,1.539111 v 5.456849 q 0,0.891985 -0.19239,1.661541 -0.17489,0.769556 -0.57716,1.346722 -0.38478,0.577167 -0.99693,0.909475 -0.61214,0.332308 -1.48664,0.332308 -0.47223,0 -0.90947,-0.157409 -0.41976,-0.139919 -0.75207,-0.402268 -0.33231,-0.279838 -0.54219,-0.647126 -0.19238,-0.384778 -0.19238,-0.839515 0,-0.472228 0.26234,-0.839515 0.26235,-0.367288 0.73458,-0.367288 0.78705,0 0.78705,0.734575 0,0.734576 -0.45474,0.734576 -0.33231,0 -0.47223,-0.139919 0.07,0.454738 0.48972,0.752066 0.43725,0.297328 1.04939,0.297328 0.5247,0 0.82203,-0.349798 0.31482,-0.367288 0.47222,-0.891985 0.15741,-0.542187 0.19239,-1.171823 0.035,-0.629637 0.035,-1.154334 z"
         id="text2-2-4-8"
         style="-inkscape-font-specification:'Marion, Normal';stroke-width:0.264583"
         transform="scale(0.98834679,1.0117906)"
         aria-label="J" />
      <g
         id="g2-5-4-6-9"
         transform="matrix(2.0944075,0,0,2.1214952,317.06199,33.81419)"
         style="stroke-width:0.474404">
        <g
           id="path5014-5-4-0-1-9">
          <path
             style="color:#000000;fill:#000000;fill-rule:evenodd;-inkscape-stroke:none"
             d="m 40.659491,9.1102766 c -1.674376,-0.9087849 -2.511564,-5.7556399 1.395313,-5.7556399 3.906876,0 3.069688,4.846855 1.395313,5.7556399 1.116252,-0.9087849 4.744065,-2.1204988 4.744065,2.1204994 0,4.240997 -5.023127,3.938069 -5.30219,0.605856 h -0.558125 c 0,0 0.279062,3.332213 1.11625,4.846855 h -2.790626 c 0.837189,-1.514642 1.11625,-4.846855 1.11625,-4.846855 h -0.558124 c -0.279063,3.332213 -5.581253,3.635141 -5.581253,-0.605856 0,-3.6351412 3.906877,-3.0292843 5.023127,-2.1204994 z"
             id="path3" />
          <path
             style="color:#000000;fill:#000000;fill-rule:evenodd;-inkscape-stroke:none"
             d="m 42.054687,3.2910156 c -0.989694,0 -1.68903,0.3090446 -2.146484,0.7910156 -0.457454,0.4819711 -0.671566,1.1329246 -0.707031,1.8066407 -0.03547,0.673716 0.106511,1.3737449 0.363281,1.9648437 0.21501,0.4949631 0.543523,0.836692 0.890625,1.0996094 -0.636134,-0.407386 -1.70707,-0.7234035 -2.736328,-0.5488281 -0.568751,0.096467 -1.106994,0.3398724 -1.501953,0.7929687 -0.394959,0.4530963 -0.642578,1.1131774 -0.642578,2.0332034 0,1.073325 0.335872,1.867908 0.849609,2.396484 0.513737,0.528576 1.201715,0.789256 1.896484,0.808594 1.369366,0.03811 2.752968,-0.884809 2.929688,-2.537109 h 0.455078 c -0.0049,0.0566 -0.06863,0.800193 -0.236328,1.783203 -0.17393,1.019546 -0.452685,2.227852 -0.863281,2.970703 l -0.05273,0.09375 h 3.003907 l -0.05078,-0.09375 c -0.410595,-0.742851 -0.691304,-1.951157 -0.865234,-2.970703 -0.167697,-0.98301 -0.231477,-1.726602 -0.236328,-1.783203 h 0.453125 c 0.174418,1.650902 1.490721,2.575315 2.792969,2.537109 0.660672,-0.01938 1.31358,-0.28168 1.800781,-0.810547 0.487201,-0.528867 0.806641,-1.321894 0.80664,-2.394531 0,-1.069196 -0.229077,-1.8021083 -0.597656,-2.2851565 -0.368579,-0.4830482 -0.875926,-0.7093742 -1.412109,-0.7675781 -0.95348,-0.1035023 -1.940893,0.31779 -2.564453,0.7382812 0.332134,-0.2642021 0.653502,-0.5840734 0.861328,-1.0625 0.25677,-0.5910988 0.398746,-1.2911277 0.363281,-1.9648437 C 44.872738,5.2149558 44.658626,4.5640023 44.201172,4.0820312 43.743718,3.6000602 43.044382,3.2910156 42.054687,3.2910156 Z m 0,0.1269532 c 0.963742,0 1.624584,0.2967402 2.056641,0.7519531 0.432057,0.4552128 0.637575,1.0730148 0.671875,1.7246093 0.0343,0.6515946 -0.104485,1.3349221 -0.353516,1.9082032 -0.24903,0.5732811 -0.609801,1.0348681 -1.009765,1.2519531 l 0.002,0.00195 c -0.0027,0.00219 -0.009,0.00367 -0.01172,0.00586 l 0.07031,0.1035156 c 0.0032,-0.00176 0.0046,-0.00798 0.0078,-0.00977 l 0.002,0.00195 c 0.542902,-0.4419974 1.723541,-0.9682102 2.744141,-0.8574218 0.5103,0.055394 0.979654,0.2665674 1.326172,0.7207031 0.346518,0.4541357 0.570312,1.1576836 0.570312,2.2089846 0,1.047859 -0.308129,1.807565 -0.771484,2.310547 -0.463355,0.502981 -1.0829,0.751048 -1.712891,0.769531 -1.259982,0.03697 -2.554475,-0.84346 -2.691406,-2.478516 l -0.0059,-0.05859 h -0.683594 l 0.0059,0.06836 c 0,0 0.06924,0.836109 0.244141,1.861328 0.169555,0.9939 0.44679,2.144122 0.851562,2.917969 h -2.625 c 0.404774,-0.773847 0.682008,-1.924069 0.851563,-2.917969 0.174898,-1.025219 0.244141,-1.861328 0.244141,-1.861328 l 0.0059,-0.06836 h -0.683594 l -0.0059,0.05859 c -0.136786,1.633322 -1.498759,2.515572 -2.830078,2.478516 -0.66566,-0.01853 -1.321404,-0.268212 -1.810547,-0.771484 -0.489143,-0.503273 -0.814453,-1.261423 -0.814453,-2.308594 0,-0.897543 0.240818,-1.5238836 0.613281,-1.9511721 0.372463,-0.4272886 0.880236,-0.6571374 1.427734,-0.75 1.094997,-0.1857254 2.343288,0.1928367 2.878907,0.6289062 l 0.002,-0.00195 c 0.0032,0.00178 0.0046,0.00801 0.0078,0.00977 L 40.699219,9.0625 c -0.0027,-0.0022 -0.009,-0.00366 -0.01172,-0.00586 l 0.002,-0.00195 C 40.289488,8.8376025 39.928718,8.3760155 39.679687,7.8027344 39.430657,7.2294533 39.291871,6.5461257 39.326172,5.8945312 39.360472,5.2429368 39.56599,4.6251347 39.998047,4.1699219 40.430104,3.714709 41.090946,3.4179688 42.054687,3.4179688 Z"
             id="path4" />
        </g>
      </g>
      <g
         id="g2-3-8-5-6-3"
         transform="matrix(0.95461259,0,0,0.97109781,381.43013,16.219479)"
         style="stroke-width:1.03861">
        <g
           id="path5014-2-2-0-1-7">
          <path
             style="color:#000000;fill:#000000;fill-rule:evenodd;-inkscape-stroke:none"
             d="m 40.659491,9.1102766 c -1.674376,-0.9087849 -2.511564,-5.7556399 1.395313,-5.7556399 3.906876,0 3.069688,4.846855 1.395313,5.7556399 1.116252,-0.9087849 4.744065,-2.1204988 4.744065,2.1204994 0,4.240997 -5.023127,3.938069 -5.30219,0.605856 h -0.558125 c 0,0 0.279062,3.332213 1.11625,4.846855 h -2.790626 c 0.837189,-1.514642 1.11625,-4.846855 1.11625,-4.846855 h -0.558124 c -0.279063,3.332213 -5.581253,3.635141 -5.581253,-0.605856 0,-3.6351412 3.906877,-3.0292843 5.023127,-2.1204994 z"
             id="path5" />
          <path
             style="color:#000000;fill:#000000;fill-rule:evenodd;-inkscape-stroke:none"
             d="m 42.054687,3.2167969 c -1.005127,0 -1.728615,0.3165704 -2.201171,0.8144531 -0.472557,0.4978827 -0.690405,1.1666451 -0.726563,1.8535156 -0.03616,0.6868706 0.107768,1.3963529 0.369141,1.9980469 0.170363,0.3921864 0.455294,0.6150629 0.714843,0.8789063 -0.673111,-0.3400858 -1.578065,-0.586722 -2.503906,-0.4296875 -0.581389,0.098611 -1.138538,0.3479634 -1.546875,0.8164062 -0.408336,0.4684428 -0.662109,1.1486355 -0.662109,2.0820315 0,1.088878 0.344685,1.905595 0.873047,2.449219 0.528361,0.543623 1.235186,0.812211 1.947265,0.832031 1.384988,0.03855 2.788807,-0.888569 3,-2.53711 h 0.300782 c -0.01059,0.119967 -0.06343,0.761924 -0.222657,1.695313 -0.173354,1.016173 -0.456337,2.221624 -0.857422,2.947265 l -0.113281,0.203125 h 3.257813 l -0.113282,-0.203125 c -0.401083,-0.725641 -0.684067,-1.931092 -0.857421,-2.947265 -0.159232,-0.933389 -0.212067,-1.575346 -0.222657,-1.695313 h 0.328125 c 0.216044,1.631835 1.519215,2.575683 2.833985,2.53711 0.678917,-0.01992 1.352134,-0.291678 1.853515,-0.835938 0.501382,-0.54426 0.826172,-1.357941 0.826172,-2.445312 0,-1.079838 -0.231583,-1.8317905 -0.613281,-2.3320315 C 47.337052,8.3981965 46.807435,8.1633903 46.255859,8.1035156 45.416664,8.0124192 44.602975,8.323597 43.962891,8.6796875 44.191808,8.4263733 44.458603,8.2388901 44.613281,7.8828125 44.874654,7.2811185 45.018579,6.5716362 44.982422,5.8847656 44.946264,5.1978951 44.728416,4.5291327 44.255859,4.03125 43.783303,3.5333673 43.059815,3.2167969 42.054687,3.2167969 Z m 0,0.2753906 c 0.948309,0 1.584999,0.2892145 2.001954,0.7285156 0.416954,0.4393012 0.618735,1.0392944 0.652343,1.6777344 0.03361,0.63844 -0.103228,1.3123141 -0.347656,1.875 -0.244428,0.5626859 -0.598753,1.0117368 -0.976562,1.2167969 l 0.002,0.00195 c -0.0055,0.00444 -0.018,0.00729 -0.02344,0.011719 l 0.152344,0.2265625 c 0.0073,-0.00398 0.01028,-0.017376 0.01758,-0.021484 l 0.0039,0.00781 C 44.061905,8.7895402 45.236745,8.2675532 46.226562,8.375 46.721471,8.4287234 47.166601,8.6294633 47.5,9.0664063 c 0.333399,0.4369429 0.556641,1.1234027 0.556641,2.1640627 0,1.033125 -0.302779,1.772177 -0.751954,2.259765 -0.449174,0.487589 -1.048409,0.728146 -1.660156,0.746094 -1.223493,0.0359 -2.481395,-0.81398 -2.615234,-2.412109 l -0.01172,-0.125 h -0.833984 l 0.01367,0.148437 c 0,0 0.07062,0.838596 0.246093,1.867188 0.163742,0.959822 0.440944,2.044928 0.828125,2.832031 h -2.433593 c 0.38719,-0.787105 0.666334,-1.872197 0.830078,-2.832031 0.175473,-1.028592 0.24414,-1.867188 0.24414,-1.867188 l 0.01367,-0.148437 h -0.833984 l -0.01172,0.125 c -0.133521,1.594334 -1.457207,2.448201 -2.753906,2.412109 -0.648349,-0.01805 -1.283294,-0.259821 -1.757813,-0.748047 -0.474518,-0.488225 -0.794922,-1.226194 -0.794922,-2.257812 0,-0.884173 0.234665,-1.4904019 0.59375,-1.902344 0.359086,-0.4119421 0.849906,-0.6358434 1.384766,-0.7265625 1.069721,-0.1814382 2.311459,0.2009557 2.820313,0.6152344 l 0.0039,-0.00781 c 0.0073,0.00411 0.01024,0.017502 0.01758,0.021484 l 0.152344,-0.2265625 c -0.0053,-0.00435 -0.01799,-0.00543 -0.02344,-0.00977 l 0.002,-0.00391 C 40.3468,8.7851743 39.992475,8.3361234 39.748047,7.7734375 c -0.244428,-0.5626859 -0.379311,-1.23656 -0.345703,-1.875 0.03361,-0.63844 0.233436,-1.2384332 0.65039,-1.6777344 0.416955,-0.4393011 1.053645,-0.7285156 2.001953,-0.7285156 z"
             id="path6" />
        </g>
      </g>
      <g
         id="g1438-0"
         transform="matrix(0.34311513,0,0,0.33693153,380.99362,22.341861)"
         style="stroke-width:0.778165">
        <path
           d="m 67.89166,54.31335 c -5.97197,3.77388 -13.46945,-3.16524 -17.45267,4.87929 -3.49543,4.78231 7.52973,6.17381 0.56963,10.42391 -4.75622,5.12438 -4.47681,7.38038 -0.36918,8.0077 -1.18232,5.66369 -0.32039,15.1708 2.27409,20.35542 -3.2115,3.9032 -0.80442,2.56238 3.55276,3.37613 -1.35384,2.15452 -0.57647,10.04961 -5.20727,12.4888 -2.33124,7.02153 -0.58347,14.64222 -1.125,21.90625 11.27494,4.74824 24.62504,5.28755 35.40292,2.7547 4.73843,-0.99042 10.14533,-1.36846 9.19083,-8.1297 0.28361,-8.42628 1.28263,-19.51808 -7.91004,-23.83032 -5.37315,-0.75269 -7.16434,-4.38769 -3.0403,-9.54943 3.06287,-8.3581 6.4398,-4.86114 11.14346,-6.97491 4.9011,-1.31117 -7.0014,-4.53962 -5.42958,-9.97728 -1.52268,-4.25386 -3.38369,-9.25774 -6.42986,-12.71112 7.67894,-0.68962 8.50195,-8.6974 2.26007,-10.33194 -6.18656,-4.12231 -9.83712,2.91376 -14.54484,-2.37461 -0.77934,-0.0133 -2.10218,-0.50385 -2.88502,-0.31289 z"
           id="path2136"
           style="fill:#000000;stroke-width:1.55633" />
        <path
           d="m 85.23542,85.57265 c 0,11.41333 -7.56387,20.67633 -16.88364,20.67633 -9.31977,0 -16.88363,-9.263 -16.88363,-20.67633 0,-11.41333 7.56386,-20.67633 16.88363,-20.67633 9.31977,0 16.88364,9.263 16.88364,20.67633 z"
           id="path2140"
           style="fill:url(#linearGradient1435);stroke-width:1.55633" />
        <path
           d="m 64.84501,106.72675 c -7.04906,0 -12.72482,5.67576 -12.72482,12.72481 v 14.92936 c 9.37989,4.64913 29.52618,4.89382 40.61891,0 v -14.92936 c 0,-7.04905 -5.67576,-12.72481 -12.72482,-12.72481 z"
           id="path2142"
           style="fill:url(#linearGradient1432);stroke-width:1.55633" />
        <path
           d="M 49.63778,75.94142 C 52.16499,71.41286 54.6922,62.76084 68.76511,62.85056 90.6052,63.49045 85.39537,86.23211 93.21569,88.68632 88.36281,90.26363 85.91701,91.61479 78.67498,89.11649 79.46665,83.4175 78.17552,79.23765 74.74985,76.30136 70.48096,78.54023 54.01082,77.47597 49.63778,75.94142 Z"
           id="path2144"
           style="fill:#6d2b00;fill-rule:evenodd;stroke-width:1.19613px" />
        <g
           id="g2146"
           transform="matrix(0.144857,0,0,0.09790296,17.25788,62.2885)">
          <path
             d="m 353,245.86218 c 0,11.868 -9.408,21.5 -21,21.5 -11.592,0 -21,-9.632 -21,-21.5 0,-11.868 9.408,-21.5 21,-21.5 11.592,0 21,9.632 21,21.5 z"
             id="path2148"
             style="fill:#ffffff;stroke-width:1.55633"
             transform="translate(-4,-6)" />
          <path
             d="m 353,245.86218 c 0,11.868 -9.408,21.5 -21,21.5 -11.592,0 -21,-9.632 -21,-21.5 0,-11.868 9.408,-21.5 21,-21.5 11.592,0 21,9.632 21,21.5 z"
             id="path2150"
             style="fill:#b67870;stroke-width:1.55633"
             transform="matrix(0.571429,0,0,0.83721,129.2857,34.52408)" />
          <path
             d="m 353,245.86218 c 0,11.868 -9.408,21.5 -21,21.5 -11.592,0 -21,-9.632 -21,-21.5 0,-11.868 9.408,-21.5 21,-21.5 11.592,0 21,9.632 21,21.5 z"
             id="path2152"
             style="fill:#000000;stroke-width:1.55633"
             transform="matrix(0.357143,0,0,0.674419,195.9286,76.04816)" />
        </g>
        <g
           id="g2154"
           transform="matrix(0.144857,0,0,0.09790296,7.16938,61.9476)">
          <path
             d="m 353,245.86218 c 0,11.868 -9.408,21.5 -21,21.5 -11.592,0 -21,-9.632 -21,-21.5 0,-11.868 9.408,-21.5 21,-21.5 11.592,0 21,9.632 21,21.5 z"
             id="path2156"
             style="fill:#ffffff;stroke-width:1.55633"
             transform="translate(-4,-6)" />
          <path
             d="m 353,245.86218 c 0,11.868 -9.408,21.5 -21,21.5 -11.592,0 -21,-9.632 -21,-21.5 0,-11.868 9.408,-21.5 21,-21.5 11.592,0 21,9.632 21,21.5 z"
             id="path2158"
             style="fill:#b67870;stroke-width:1.55633"
             transform="matrix(0.571429,0,0,0.83721,129.2857,34.52408)" />
          <path
             d="m 353,245.86218 c 0,11.868 -9.408,21.5 -21,21.5 -11.592,0 -21,-9.632 -21,-21.5 0,-11.868 9.408,-21.5 21,-21.5 11.592,0 21,9.632 21,21.5 z"
             id="path2160"
             style="fill:#000000;stroke-width:1.55633"
             transform="matrix(0.357143,0,0,0.674419,195.9286,76.04816)" />
        </g>
        <path
           d="m 56.80124,98.95484 c 1.8485,3.62217 6.90032,1.94321 11.72783,0 -5.32386,0.55966 -8.99261,0.96922 -11.72783,0 z"
           id="path2162"
           style="fill:url(#linearGradient1420);fill-rule:evenodd;stroke-width:0.778165px" />
        <path
           d="m 78.94255,122.60586 1.26359,0.12326 1.37136,14.51276 -3.46519,0.46578 z"
           id="path2164"
           style="fill:#b30d95;stroke-width:1.55633" />
        <path
           d="m 58.99868,86.89675 c -0.7919,1.28683 -1.9449,3.40241 -1.78064,4.37485 0.16427,0.97244 1.65238,0.76248 2.44234,1.32309 l 0.33085,-0.47789 c -0.69469,-0.49302 -1.78293,-0.008 -1.91799,-0.80757 -0.13505,-0.79956 0.68108,-2.91487 1.42171,-4.1184 z"
           id="path2166"
           style="fill:#000000;fill-rule:evenodd;stroke-width:0.778165px" />
        <path
           d="m 60.29294,94.54973 c -3.80355,0.37779 -6.13342,3.30104 -8.06137,5.42046 0,0 6.2375,-3.45629 8.20167,-3.38614 -0.1403,-0.49104 0.07015,-1.12238 -0.1403,-2.03432 z"
           id="path2168"
           style="fill:#6d2b00;fill-rule:evenodd;stroke-width:0.778165px" />
        <path
           d="m 61.16134,94.40536 c 3.38195,0.34612 9.84525,2.96975 10.14585,5.45942 0,0 -7.88557,-4.21785 -9.7388,-3.56328 -0.01303,-0.51052 -0.33502,-0.96301 -0.40705,-1.89614 z"
           id="path2170"
           style="fill:#6d2b00;fill-rule:evenodd;stroke-width:0.778165px" />
        <path
           d="m 58.63305,108.39924 c 3.63328,11.22307 8.70407,20.94614 14.46235,29.54421 l 3.68565,-0.11199 c -5.73774,-9.20798 -11.72548,-19.60345 -15.15072,-30.81142 0,0 -2.03608,0.62409 -2.99728,1.3792 z"
           id="path2172"
           style="fill:url(#linearGradient1413);fill-rule:evenodd;stroke-width:0.778165px" />
        <path
           d="m 56.05107,104.88096 -0.25,10.25 9.3125,-5.6875 v 1.4375 l 3.6875,0.3125 -0.0625,-1.9375 12.125,5.4375 -1.25,-12.0625 -10.6875,5.4375 -0.25,-1.8125 -3.75,-0.25 v 1.9375 z"
           id="path2174"
           style="fill:url(#linearGradient1410);fill-rule:evenodd;stroke-width:0.778165px" />
        <path
           d="m 55.85652,64.7821 -0.53718,2.59968 c 7.66667,2.22916 17.90768,1.87724 26.76185,0.91891 -0.01858,-0.35897 -0.34967,-2.51859 -0.34967,-2.51859 -8.52083,0.875 -19.41667,0.8125 -25.875,-1 z"
           id="path2176"
           style="fill:url(#linearGradient1407);fill-rule:evenodd;stroke-width:0.778165px" />
        <path
           d="m 68.10652,66.3446 c 28.52083,3.83333 23.47917,-13.39583 1.5625,-7.625 -21.14584,-7.45833 -26.22917,9.83333 -1.5625,7.625 z"
           id="path2178"
           style="fill:url(#linearGradient1404);fill-rule:evenodd;stroke-width:0.778165px" />
        <ellipse
           id="path2180"
           style="fill:url(#linearGradient2286);stroke-width:1.55633"
           transform="translate(-38.33098,1.5321)"
           cx="107.09375"
           cy="56.40625"
           rx="3.71875"
           ry="1.65625" />
        <path
           d="m 68.76774,56.29375 c -1.81046,0 -3.13777,0.61169 -3.46925,1.375 -12.88121,-2.72131 -17.58211,4.48432 -9.53261,7.5625 l -0.40631,2.0625 c -2.99834,2.78901 -4.39251,6.2786 -5.71957,8.65625 0.75133,0.26361 2.22081,0.49726 3.56301,0.71875 -1.06738,2.71138 -1.719,5.69655 -1.719,8.90625 0,4.4709 1.1842,8.58533 3.15671,11.96875 -0.84974,0.816 -1.71153,1.67352 -2.4066,2.4375 0,0 1.45776,-0.77841 3.00043,-1.53125 3.02756,4.62079 7.59736,7.65185 12.78308,7.78125 l -3.09419,-0.21875 v 0.71875 h -0.06251 c -0.91622,0 -1.8275,0.099 -2.68788,0.28125 l -6.12588,-2.125 -0.12502,5.53125 c -2.32941,2.30379 -3.78179,5.48161 -3.78179,9.03125 v 14.9375 c 4.95763,2.45689 12.89405,3.61152 20.9405,3.5 0.01272,0.019 0.01852,0.0435 0.03125,0.0625 l 3.68803,-0.0937 c -0.04998,-0.0802 -0.10624,-0.16961 -0.15627,-0.25 0.4947,-0.0318 0.97767,-0.0828 1.46896,-0.125 v 0.25 l 3.46925,-0.46875 v -0.0312 c 4.13511,-0.57877 8.02196,-1.46048 11.15785,-2.84375 V 119.45 c -1e-5,-7.0384 -5.65405,-12.70164 -12.68932,-12.71875 l -0.43756,-4.09375 -8.0324,4.09375 H 68.73649 L 68.67398,106.2625 H 68.4552 C 76.38151,106.2092 82.97297,99.44626 84.73878,90.3875 87.841,90.54988 90.08319,89.7259 93.24,88.7 87.75641,86.97936 88.50596,75.38174 82.01964,68.325 c 0.01999,-0.0022 0.04253,0.0022 0.06251,0 -0.01536,-0.29686 -0.20247,-1.57381 -0.28129,-2.09375 10.99154,-2.38533 5.53861,-10.84107 -9.68889,-7.90625 0.08651,-0.14007 0.37506,-0.22274 0.37506,-0.375 0,-0.91425 -1.66624,-1.65625 -3.71929,-1.65625 z"
           id="path2182"
           style="fill:url(#linearGradient1400);stroke-width:1.55633" />
      </g>
    </g>
  </g>
</svg>
