<?xml version="1.0" encoding="UTF-8" standalone="no"?>
<!-- Created with Inkscape (http://www.inkscape.org/) -->

<svg
   width="52.916668mm"
   height="66.145836mm"
   viewBox="0 0 52.916668 66.145836"
   version="1.1"
   id="svg1"
   sodipodi:docname="d2.svg"
   inkscape:version="1.3.2 (091e20e, 2023-11-25)"
   xmlns:inkscape="http://www.inkscape.org/namespaces/inkscape"
   xmlns:sodipodi="http://sodipodi.sourceforge.net/DTD/sodipodi-0.dtd"
   xmlns="http://www.w3.org/2000/svg"
   xmlns:svg="http://www.w3.org/2000/svg">
  <sodipodi:namedview
     id="namedview1"
     pagecolor="#505050"
     bordercolor="#ffffff"
     borderopacity="1"
     inkscape:showpageshadow="0"
     inkscape:pageopacity="0"
     inkscape:pagecheckerboard="1"
     inkscape:deskcolor="#d1d1d1"
     inkscape:document-units="mm"
     inkscape:zoom="0.94399996"
     inkscape:cx="99.576275"
     inkscape:cy="125"
     inkscape:window-width="1344"
     inkscape:window-height="424"
     inkscape:window-x="221"
     inkscape:window-y="44"
     inkscape:window-maximized="0"
     inkscape:current-layer="svg1" />
  <defs
     id="defs1" />
  <g
     id="layer1"
     transform="translate(-3.3749864,-864.91196)">
    <g
       id="g57"
       transform="translate(-197.66543,201.6051)">
      <g
         id="path3229-6-3-4-2-2-8-2-1-0-4-8-3">
        <path
           style="color:#000000;fill:#ffffff;fill-rule:evenodd;-inkscape-stroke:none"
           d="m 253.6925,665.95269 c 0,-1.32291 -1.05834,-2.38125 -2.38125,-2.38125 h -47.625 c -1.32291,0 -2.38125,1.05834 -2.38125,2.38125 v 60.85417 c 0,1.32292 1.05834,2.38125 2.38125,2.38125 h 47.625 c 1.32291,0 2.38125,-1.05833 2.38125,-2.38125 z"
           id="path1" />
        <path
           style="color:#000000;fill:#000000;fill-rule:evenodd;-inkscape-stroke:none"
           d="m 203.68555,663.30664 c -1.46402,0 -2.64453,1.18246 -2.64453,2.64648 v 60.85352 c 0,1.46403 1.18051,2.64649 2.64453,2.64648 h 47.625 c 1.46402,10e-6 2.64648,-1.18245 2.64648,-2.64648 v -60.85352 c 0,-1.46402 -1.18246,-2.64648 -2.64648,-2.64648 z m 0,0.5293 h 47.625 c 1.18179,0 2.11718,0.93539 2.11718,2.11718 v 60.85352 c 0,1.18181 -0.93539,2.11719 -2.11718,2.11719 h -47.625 c -1.1818,0 -2.11524,-0.93538 -2.11524,-2.11719 v -60.85352 c 0,-1.18179 0.93344,-2.11718 2.11524,-2.11718 z"
           id="path2" />
      </g>
      <g
         id="path4365-9-9-0-3-4-7-2-0-0">
        <path
           style="color:#000000;fill:#ff0000;fill-rule:evenodd;-inkscape-stroke:none"
           d="m 238.05238,672.46531 5.97199,-6.2694 5.97198,5.98443 -5.97198,6.83933 z"
           id="path3" />
        <path
           style="color:#000000;fill:#ff0000;fill-rule:evenodd;-inkscape-stroke:none"
           d="m 244.02148,666.00586 -6.15039,6.45703 6.15625,6.75586 6.15039,-7.04492 z m 0.006,0.37891 5.78907,5.80078 -5.79297,6.63476 -5.79102,-6.35351 z"
           id="path4" />
      </g>
      <g
         id="path4365-6-6-2-9-80-4-3-5-4-0-0-5-1">
        <path
           style="color:#000000;fill:#ff0000;fill-rule:evenodd;-inkscape-stroke:none"
           d="m 214.32625,701.42895 13.08077,-13.77971 13.08078,13.15336 -13.08078,15.0324 z"
           id="path5" />
        <path
           style="color:#000000;fill:#ff0000;fill-rule:evenodd;-inkscape-stroke:none"
           d="m 227.4043,687.45898 -13.25782,13.96875 13.26172,14.60547 13.25977,-15.23633 z m 0.006,0.38086 12.89648,12.96875 -12.90234,14.82618 -12.89844,-14.20508 z"
           id="path6" />
      </g>
      <path
         d="m 211.01342,667.62054 q -0.35111,0 -0.68467,0.0176 -0.316,0.0176 -0.57933,0.0527 l -0.0702,-0.474 q 1.17622,-1.15867 2.15933,-2.24711 1.00066,-1.08844 1.72044,-2.10666 0.73733,-1.03577 1.1411,-2.03643 0.42134,-1.00067 0.42134,-1.98378 0,-1.05333 -0.57934,-1.56244 -0.57933,-0.52666 -1.65021,-0.52666 -1.00067,0 -1.50978,0.36867 -0.49155,0.35111 -0.49155,1.00066 0.59689,0.17555 0.59689,0.64955 0,0.86022 -0.73733,0.86022 -0.71978,0 -0.71978,-1.14111 0,-1.31666 0.87778,-2.00132 0.87777,-0.68467 2.65088,-0.68467 3.15999,0 3.15999,2.91422 0,1.00066 -0.316,1.89599 -0.316,0.89533 -0.98311,1.79066 -0.64955,0.87778 -1.66777,1.80822 -1.00067,0.93044 -2.38755,2.00132 h 3.12488 q 0.474,0 0.80755,-0.0527 0.33355,-0.0527 0.57933,-0.21067 0.24578,-0.158 0.42133,-0.43889 0.17556,-0.29844 0.35111,-0.77244 l 0.45645,0.0702 -0.66711,2.80888 z"
         id="text11-1"
         style="-inkscape-font-specification:'Marion, Normal';fill:#ff0000;stroke-width:0.264583"
         transform="scale(0.98465232,1.0155869)"
         aria-label="2" />
    </g>
  </g>
</svg>
