<?xml version="1.0" encoding="UTF-8" standalone="no"?>
<!-- Created with Inkscape (http://www.inkscape.org/) -->

<svg
   width="52.916668mm"
   height="66.145836mm"
   viewBox="0 0 52.916668 66.145836"
   version="1.1"
   id="svg1"
   sodipodi:docname="d5.svg"
   inkscape:version="1.3.2 (091e20e, 2023-11-25)"
   xmlns:inkscape="http://www.inkscape.org/namespaces/inkscape"
   xmlns:sodipodi="http://sodipodi.sourceforge.net/DTD/sodipodi-0.dtd"
   xmlns="http://www.w3.org/2000/svg"
   xmlns:svg="http://www.w3.org/2000/svg">
  <sodipodi:namedview
     id="namedview1"
     pagecolor="#505050"
     bordercolor="#ffffff"
     borderopacity="1"
     inkscape:showpageshadow="0"
     inkscape:pageopacity="0"
     inkscape:pagecheckerboard="1"
     inkscape:deskcolor="#d1d1d1"
     inkscape:document-units="mm"
     inkscape:zoom="0.94399996"
     inkscape:cx="99.576275"
     inkscape:cy="125"
     inkscape:window-width="1344"
     inkscape:window-height="424"
     inkscape:window-x="221"
     inkscape:window-y="44"
     inkscape:window-maximized="0"
     inkscape:current-layer="svg1" />
  <defs
     id="defs1" />
  <g
     id="layer1"
     transform="translate(-2.9781165,-648.13127)">
    <g
       id="g45"
       transform="translate(-197.66543,201.6051)">
      <g
         id="path3229-6-3-4-2-2-8-2-1-0">
        <path
           style="color:#000000;fill:#ffffff;fill-rule:evenodd;-inkscape-stroke:none"
           d="m 253.29563,449.17195 c 0,-1.32291 -1.05834,-2.38125 -2.38125,-2.38125 h -47.625 c -1.32291,0 -2.38125,1.05834 -2.38125,2.38125 v 60.85417 c 0,1.32292 1.05834,2.38125 2.38125,2.38125 h 47.625 c 1.32291,0 2.38125,-1.05833 2.38125,-2.38125 z"
           id="path1" />
        <path
           style="color:#000000;fill:#000000;fill-rule:evenodd;-inkscape-stroke:none"
           d="m 203.28906,446.52539 c -1.46402,0 -2.64648,1.18246 -2.64648,2.64648 v 60.85352 c 0,1.46403 1.18246,2.64648 2.64648,2.64648 h 47.625 c 1.46402,0 2.64649,-1.18245 2.64649,-2.64648 v -60.85352 c 0,-1.46402 -1.18247,-2.64648 -2.64649,-2.64648 z m 0,0.5293 h 47.625 c 1.1818,0 2.11719,0.93539 2.11719,2.11718 v 60.85352 c 0,1.18181 -0.93539,2.11719 -2.11719,2.11719 h -47.625 c -1.18179,0 -2.11718,-0.93538 -2.11719,-2.11719 v -60.85352 c 10e-6,-1.18179 0.9354,-2.11718 2.11719,-2.11718 z"
           id="path2" />
      </g>
      <g
         id="path4365-9-9-0-3-4-7">
        <path
           style="color:#000000;fill:#ff0000;fill-rule:evenodd;-inkscape-stroke:none"
           d="m 237.65551,455.68457 5.97199,-6.2694 5.97198,5.98443 -5.97198,6.83933 z"
           id="path3" />
        <path
           style="color:#000000;fill:#ff0000;fill-rule:evenodd;-inkscape-stroke:none"
           d="m 243.625,449.22656 -6.15039,6.45508 6.1543,6.75586 6.15234,-7.04297 z m 0.004,0.37696 5.78906,5.80273 -5.79297,6.63477 -5.78906,-6.35547 z"
           id="path4" />
      </g>
      <g
         id="path4365-6-6-2-9-80-4-3-5-4-0">
        <path
           style="color:#000000;fill:#ff0000;fill-rule:evenodd;-inkscape-stroke:none"
           d="m 213.92938,484.64821 13.08077,-13.77971 13.08078,13.15336 -13.08078,15.0324 z"
           id="path5" />
        <path
           style="color:#000000;fill:#ff0000;fill-rule:evenodd;-inkscape-stroke:none"
           d="m 227.00781,470.67773 -13.25976,13.96875 13.26367,14.60743 13.25976,-15.23829 z m 0.004,0.37891 12.89844,12.9707 -12.90235,14.82813 -12.89648,-14.20508 z"
           id="path6" />
      </g>
      <path
         d="m 197.79105,475.63244 0.98836,-5.80659 q 0.70597,0.0883 1.37664,0.1412 0.67067,0.0529 1.32369,0.0529 1.83551,0 2.54148,-0.60007 h 0.21179 q -0.81186,2.08261 -2.96506,2.08261 -0.97071,0 -1.83552,-0.19414 l -0.56477,3.24745 q 0.81186,-0.49418 1.81786,-0.49418 3.70633,0 3.70633,3.90047 0,3.90048 -4.44759,3.90048 -2.70033,0 -2.70033,-1.48253 0,-0.65303 0.54712,-0.65303 0.52948,0 0.52948,0.52948 0,0.28239 -0.26474,0.45888 0.37064,0.47653 1.62373,0.47653 3.01801,0 3.01801,-3.22981 0,-2.94741 -2.47089,-2.94741 -1.21779,0 -1.83551,0.88246 z"
         id="text8-2"
         style="-inkscape-font-specification:'Marion, Normal';fill:#ff0000;stroke-width:0.264583"
         transform="scale(1.0447178,0.95719628)"
         aria-label="5" />
    </g>
  </g>
</svg>
