<?xml version="1.0" encoding="UTF-8" standalone="no"?>
<!-- Created with Inkscape (http://www.inkscape.org/) -->

<svg
   width="52.916668mm"
   height="66.145844mm"
   viewBox="0 0 52.916668 66.145844"
   version="1.1"
   id="svg1"
   sodipodi:docname="dk.svg"
   inkscape:version="1.3.2 (091e20e, 2023-11-25)"
   xmlns:inkscape="http://www.inkscape.org/namespaces/inkscape"
   xmlns:sodipodi="http://sodipodi.sourceforge.net/DTD/sodipodi-0.dtd"
   xmlns:xlink="http://www.w3.org/1999/xlink"
   xmlns="http://www.w3.org/2000/svg"
   xmlns:svg="http://www.w3.org/2000/svg">
  <sodipodi:namedview
     id="namedview1"
     pagecolor="#505050"
     bordercolor="#ffffff"
     borderopacity="1"
     inkscape:showpageshadow="0"
     inkscape:pageopacity="0"
     inkscape:pagecheckerboard="1"
     inkscape:deskcolor="#d1d1d1"
     inkscape:document-units="mm"
     inkscape:zoom="0.94399985"
     inkscape:cx="99.576287"
     inkscape:cy="125.00002"
     inkscape:window-width="1344"
     inkscape:window-height="424"
     inkscape:window-x="221"
     inkscape:window-y="44"
     inkscape:window-maximized="0"
     inkscape:current-layer="svg1" />
  <defs
     id="defs1">
    <linearGradient
       id="linearGradient3857">
      <stop
         id="stop3859"
         offset="0.0000000"
         style="stop-color:#ffd8c1;stop-opacity:1.0000000;" />
      <stop
         id="stop3861"
         offset="1.0000000"
         style="stop-color:#ffeded;stop-opacity:1.0000000;" />
    </linearGradient>
    <linearGradient
       id="linearGradient5407">
      <stop
         id="stop5409"
         offset="0.0000000"
         style="stop-color:#f0eb00;stop-opacity:1.0000000;" />
      <stop
         id="stop5411"
         offset="1.0000000"
         style="stop-color:#ffff00;stop-opacity:1.0000000;" />
    </linearGradient>
    <linearGradient
       id="linearGradient6214">
      <stop
         id="stop6216"
         offset="0.0000000"
         style="stop-color:#c10000;stop-opacity:1.0000000;" />
      <stop
         id="stop6218"
         offset="1.0000000"
         style="stop-color:#ff433e;stop-opacity:1.0000000;" />
    </linearGradient>
    <linearGradient
       id="linearGradient5417">
      <stop
         id="stop5419"
         offset="0.0000000"
         style="stop-color:#f0a700;stop-opacity:1.0000000;" />
      <stop
         id="stop5421"
         offset="1.0000000"
         style="stop-color:#ffed00;stop-opacity:1.0000000;" />
    </linearGradient>
    <linearGradient
       id="linearGradient2580">
      <stop
         id="stop2582"
         offset="0"
         style="stop-color:#ffffff;stop-opacity:1;" />
      <stop
         id="stop2584"
         offset="1"
         style="stop-color:#ffffff;stop-opacity:0;" />
    </linearGradient>
    <linearGradient
       gradientTransform="matrix(0.186825,0,0,0.144857,-43.31979,111.0493)"
       gradientUnits="userSpaceOnUse"
       id="linearGradient12984"
       x1="356.44232"
       x2="484.79608"
       xlink:href="#linearGradient3857"
       y1="437.49887"
       y2="256.17966" />
    <linearGradient
       gradientTransform="translate(-13.62666,78.29379)"
       gradientUnits="userSpaceOnUse"
       id="linearGradient12986"
       x1="25.75"
       x2="32.217068"
       xlink:href="#linearGradient5407"
       y1="103.13147"
       y2="101.98242" />
    <linearGradient
       gradientTransform="matrix(0.144857,0,0,0.144857,-20.92459,121.6897)"
       gradientUnits="userSpaceOnUse"
       id="linearGradient12988"
       x1="298.98572"
       x2="449.32318"
       xlink:href="#linearGradient3865"
       y1="540.53918"
       y2="415.53949" />
    <linearGradient
       id="linearGradient3865">
      <stop
         id="stop3867"
         offset="0"
         style="stop-color:#0083cc;stop-opacity:1;" />
      <stop
         id="stop3869"
         offset="1.0000000"
         style="stop-color:#24a4cc;stop-opacity:1.0000000;" />
    </linearGradient>
    <linearGradient
       gradientTransform="scale(1.193072,0.838173)"
       gradientUnits="userSpaceOnUse"
       id="linearGradient12990"
       x1="15.551833"
       x2="42.004787"
       xlink:href="#linearGradient5417"
       y1="191.00352"
       y2="161.75266" />
    <linearGradient
       gradientTransform="matrix(0.144857,0,0,0.144857,-20.52689,124.3826)"
       gradientUnits="userSpaceOnUse"
       id="linearGradient12992"
       x1="294.24606"
       x2="312.09238"
       xlink:href="#linearGradient6214"
       y1="346.32654"
       y2="322.13895" />
    <linearGradient
       gradientTransform="scale(1.147462,0.871488)"
       gradientUnits="userSpaceOnUse"
       id="linearGradient12994"
       x1="22.545038"
       x2="39.467037"
       xlink:href="#linearGradient5417"
       y1="209.02077"
       y2="191.22093" />
    <linearGradient
       gradientTransform="scale(1.151626,0.868337)"
       gradientUnits="userSpaceOnUse"
       id="linearGradient12996"
       x1="15.082837"
       x2="20.210339"
       xlink:href="#linearGradient5417"
       y1="198.42931"
       y2="193.81949" />
    <linearGradient
       gradientTransform="scale(1.435721,0.696514)"
       gradientUnits="userSpaceOnUse"
       id="linearGradient12998"
       x1="18.527365"
       x2="21.820797"
       xlink:href="#linearGradient5417"
       y1="243.97647"
       y2="240.32596" />
    <linearGradient
       gradientTransform="translate(-13.62666,78.29379)"
       gradientUnits="userSpaceOnUse"
       id="linearGradient13000"
       x1="32.463516"
       x2="60"
       xlink:href="#linearGradient5417"
       y1="58.34021"
       y2="51.180752" />
    <linearGradient
       gradientTransform="translate(-13.62666,78.29379)"
       gradientUnits="userSpaceOnUse"
       id="linearGradient13002"
       x1="32.968857"
       x2="60.722794"
       xlink:href="#linearGradient5407"
       y1="63.941719"
       y2="56.605484" />
    <linearGradient
       gradientTransform="translate(-13.62666,78.29379)"
       gradientUnits="userSpaceOnUse"
       id="linearGradient13004"
       x1="58.247921"
       x2="61.035088"
       xlink:href="#linearGradient5407"
       y1="104.91566"
       y2="103.1479" />
    <linearGradient
       gradientTransform="translate(-10.30671,81.41253)"
       gradientUnits="userSpaceOnUse"
       id="linearGradient13006"
       x1="36.313263"
       x2="43.598351"
       xlink:href="#linearGradient5407"
       y1="116.76148"
       y2="110.92786" />
    <linearGradient
       gradientTransform="matrix(0.186825,0,0,0.144857,-43.3181,111.0477)"
       gradientUnits="userSpaceOnUse"
       id="linearGradient13008"
       x1="688.30371"
       x2="361.49808"
       xlink:href="#linearGradient2580"
       y1="-31.9296"
       y2="346.66711" />
  </defs>
  <g
     id="layer1"
     transform="translate(-2.7772265,-75.182096)">
    <g
       id="g13"
       transform="translate(-197.66543,201.6051)">
      <g
         id="path3229-6-3-4">
        <path
           style="color:#000000;fill:#ffffff;fill-rule:evenodd;-inkscape-stroke:none"
           d="m 253.09474,-123.77717 c 0,-1.32291 -1.05834,-2.38125 -2.38125,-2.38125 h -47.625 c -1.32291,0 -2.38125,1.05834 -2.38125,2.38125 v 60.854174 c 0,1.32292 1.05834,2.38125 2.38125,2.38125 h 47.625 c 1.32291,0 2.38125,-1.05833 2.38125,-2.38125 z"
           id="path1" />
        <path
           style="color:#000000;fill:#000000;fill-rule:evenodd;-inkscape-stroke:none"
           d="m 203.08789,-126.42383 c -1.46402,0 -2.64453,1.18246 -2.64453,2.64649 v 60.853512 c 0,1.46403 1.18051,2.646484 2.64453,2.646484 h 47.625 c 1.46402,0 2.64648,-1.182454 2.64648,-2.646484 v -60.853512 c 0,-1.46403 -1.18246,-2.64649 -2.64648,-2.64649 z m 0,0.5293 h 47.625 c 1.1818,0 2.11719,0.93539 2.11719,2.11719 v 60.853512 c 0,1.181807 -0.93539,2.117187 -2.11719,2.117187 h -47.625 c -1.1818,0 -2.11523,-0.93538 -2.11523,-2.117187 v -60.853512 c 0,-1.1818 0.93343,-2.11719 2.11523,-2.11719 z"
           id="path2" />
      </g>
      <g
         id="path4365">
        <path
           style="color:#000000;fill:#ff0000;fill-rule:evenodd;-inkscape-stroke:none"
           d="m 237.45461,-117.01592 5.97199,-6.2694 5.97198,5.98443 -5.97198,6.83934 z"
           id="path3" />
        <path
           style="color:#000000;fill:#ff0000;fill-rule:evenodd;-inkscape-stroke:none"
           d="m 243.42383,-123.47461 -6.15039,6.45703 6.15429,6.75391 6.15235,-7.04297 z m 0.004,0.37891 5.78907,5.80078 -5.79297,6.63476 -5.78711,-6.35351 z"
           id="path4" />
      </g>
      <path
         d="m 215.92148,-109.1114 v -0.52965 q 1.00634,0 1.00634,-0.28248 0,-0.22952 -0.45903,-0.8651 l -3.17792,-4.09598 -0.79448,0.72385 q -0.19421,0.17656 -0.3531,0.40607 -0.14124,0.22952 -0.19421,0.54731 v 2.34813 q 0,1.2182 1.76551,1.2182 v 0.52965 h -5.11998 v -0.52965 q 1.62427,0 1.62427,-1.2182 v -8.12135 q 0,-1.28882 -1.74785,-1.28882 v -0.54731 h 5.0317 v 0.54731 q -1.55365,0 -1.55365,1.28882 v 4.29019 l 4.11364,-3.90178 q 0.40607,-0.37075 0.52965,-0.58261 0.14124,-0.22952 0.14124,-0.61793 0,-0.47669 -1.2182,-0.47669 v -0.54731 h 4.57267 v 0.54731 q -0.52965,0.053 -0.88275,0.1589 -0.33545,0.0883 -0.63559,0.28248 -0.30013,0.17655 -0.63558,0.49434 -0.33545,0.30014 -0.8651,0.81213 l -2.48937,2.41875 4.02536,5.24357 q 0.24717,0.26482 0.45904,0.49434 0.21186,0.22952 0.44137,0.38841 0.24717,0.1589 0.52966,0.24717 0.30013,0.0883 0.72386,0.0883 v 0.52965 z"
         id="text1"
         style="-inkscape-font-specification:'Marion, Normal';fill:#ff0000;stroke-width:0.264583"
         transform="scale(0.97909739,1.0213489)"
         aria-label="K" />
      <g
         id="path4365-6-6-2-9">
        <path
           style="color:#000000;fill:#ff0000;fill-rule:evenodd;-inkscape-stroke:none"
           d="m 213.72848,-88.052273 13.08077,-13.779707 13.08078,13.153357 -13.08078,15.03239 z"
           id="path5" />
        <path
           style="color:#000000;fill:#ff0000;fill-rule:evenodd;-inkscape-stroke:none"
           d="m 226.80664,-102.02148 -13.25781,13.966793 13.26172,14.607421 13.25976,-15.238281 z m 0.004,0.3789 12.89843,12.970705 -12.90234,14.828125 -12.89844,-14.207031 z"
           id="path6" />
      </g>
      <g
         id="g3838"
         transform="matrix(0.3585492,0,0,0.3290597,215.93261,-142.10937)"
         style="stroke-width:0.770331">
        <path
           d="m 28.868703,124.58895 c -1.984184,-1.6215 -3.418098,-2.63065 -5.77799,-5.11869 -1.766011,7.18473 -4.002336,6.1544 -7.027858,3.61115 -3.018518,-3.03581 -2.781058,11.10316 -8.602627,-1.83598 -1.678019,0.2303 1.737712,10.87919 2.201224,15.0188 3.469179,4.89443 -2.011403,11.09632 -0.275714,14.59782 5.736827,-0.37639 0.64032,6.22616 2.358153,9.76036 0.373386,4.6799 2.021301,8.45652 2.660699,12.73388 9.695747,4.43124 -8.41964,7.46303 -4.221134,11.01299 0.794564,3.26584 -1.558658,9.16934 -0.560116,13.58076 -0.712464,5.99944 -0.62702,11.41412 6.75,11.6875 12.780602,2.47945 25.816934,2.3938 37.875,-2.34375 0.134586,-6.98743 -0.09522,-14.90643 -0.21875,-21.34375 3.164713,-3.8642 -7.895168,-6.49837 -10.379637,-9.98206 3.527406,-4.32119 2.310292,-12.72433 9.464364,-13.32683 0.759407,-6.25904 -1.413611,-13.95913 -4.740977,-19.84736 1.070328,-7.66041 2.342735,-15.29526 3.0625,-23 -7.169641,14.7944 -4.28406,-3.01395 -7.450913,4.0129 -2.050713,2.30711 -3.298268,-0.73022 -4.603911,-0.61039 -1.296368,-5.81763 -3.648022,7.24466 -5.382676,-3.65251 -2.244098,9.14113 -2.866345,-6.30172 -4.453087,3.07223 z"
           id="path1515"
           style="fill:#000000;stroke-width:1.54066" />
        <path
           d="m 47.252239,158.39684 c 0,11.41333 -7.563868,20.67633 -16.883635,20.67633 -9.319767,0 -16.883635,-9.263 -16.883635,-20.67633 0,-11.41333 7.563868,-20.67633 16.883635,-20.67633 9.319767,0 16.883635,9.263 16.883635,20.67633 z"
           id="path1519"
           style="fill:url(#linearGradient12984);stroke-width:1.54066" />
        <path
           d="m 13.87334,184.54379 -2.045495,-1.42678 6.78033,-5.53033 1.515165,3.20711 c 0,0 -5.918894,4.01925 -6.25,3.75 z"
           id="path1521"
           style="fill:url(#linearGradient12986);fill-rule:evenodd;stroke-width:0.770331px" />
        <path
           d="m 24.343298,178.21122 c -7.049056,0 -12.724818,5.67576 -12.724818,12.72481 v 14.92936 c 9.379895,4.64913 29.526179,4.89382 40.618906,0 v -14.92936 c 0,-7.04905 -5.675755,-12.72481 -12.724811,-12.72481 z"
           id="path1523"
           style="fill:url(#linearGradient12988);stroke-width:1.54066" />
        <path
           d="m 10.82991,149.09549 c 0,0 1.697949,-14.37493 20.611772,-14.41037 19.976253,0.81953 19.99724,26.49551 19.99724,26.49551 -4.852885,1.57732 -3.505094,3.25835 -10.747122,0.76005 0.791673,-5.69899 -0.499458,-9.87884 -3.925129,-12.81513 -4.268891,2.23887 -21.563715,1.50448 -25.936761,-0.0301 z"
           id="path1525"
           style="fill:url(#linearGradient12990);fill-rule:evenodd;stroke-width:1.18409px" />
        <g
           id="g1527"
           transform="matrix(0.144857,0,0,0.09790296,-20.7253,135.1127)">
          <path
             d="m 353,245.86218 c 0,11.868 -9.408,21.5 -21,21.5 -11.592,0 -21,-9.632 -21,-21.5 0,-11.868 9.408,-21.5 21,-21.5 11.592,0 21,9.632 21,21.5 z"
             id="path1529"
             style="fill:#ffffff;stroke-width:1.54066"
             transform="translate(-4,-6)" />
          <path
             d="m 353,245.86218 c 0,11.868 -9.408,21.5 -21,21.5 -11.592,0 -21,-9.632 -21,-21.5 0,-11.868 9.408,-21.5 21,-21.5 11.592,0 21,9.632 21,21.5 z"
             id="path1531"
             style="fill:#0f90cc;stroke-width:1.54066"
             transform="matrix(0.571429,0,0,0.83721,129.2857,34.52408)" />
          <path
             d="m 353,245.86218 c 0,11.868 -9.408,21.5 -21,21.5 -11.592,0 -21,-9.632 -21,-21.5 0,-11.868 9.408,-21.5 21,-21.5 11.592,0 21,9.632 21,21.5 z"
             id="path1533"
             style="fill:#000000;stroke-width:1.54066"
             transform="matrix(0.357143,0,0,0.674419,195.9286,76.04816)" />
        </g>
        <g
           id="g1535"
           transform="matrix(0.144857,0,0,0.09790296,-30.8138,134.7718)">
          <path
             d="m 353,245.86218 c 0,11.868 -9.408,21.5 -21,21.5 -11.592,0 -21,-9.632 -21,-21.5 0,-11.868 9.408,-21.5 21,-21.5 11.592,0 21,9.632 21,21.5 z"
             id="path1537"
             style="fill:#ffffff;stroke-width:1.54066"
             transform="translate(-4,-6)" />
          <path
             d="m 353,245.86218 c 0,11.868 -9.408,21.5 -21,21.5 -11.592,0 -21,-9.632 -21,-21.5 0,-11.868 9.408,-21.5 21,-21.5 11.592,0 21,9.632 21,21.5 z"
             id="path1539"
             style="fill:#0f90cc;stroke-width:1.54066"
             transform="matrix(0.571429,0,0,0.83721,129.2857,34.52408)" />
          <path
             d="m 353,245.86218 c 0,11.868 -9.408,21.5 -21,21.5 -11.592,0 -21,-9.632 -21,-21.5 0,-11.868 9.408,-21.5 21,-21.5 11.592,0 21,9.632 21,21.5 z"
             id="path1541"
             style="fill:#000000;stroke-width:1.54066"
             transform="matrix(0.357143,0,0,0.674419,195.9286,76.04816)" />
        </g>
        <path
           d="m 18.818066,171.77902 c 2.920276,0.13892 7.302222,0.33556 11.727824,0 -4.653998,-1.71785 -7.920837,-2.24609 -11.727824,0 z"
           id="path1543"
           style="fill:url(#linearGradient12992);fill-rule:evenodd;stroke-width:0.770331px" />
        <path
           d="m 38.440844,194.09033 1.26359,0.12326 1.371356,14.51276 -3.465186,0.2504 z"
           id="path1545"
           style="fill:#004cb0;stroke-width:1.54066" />
        <path
           d="m 20.479613,159.98888 c -0.7919,1.28683 -1.944897,3.40242 -1.780637,4.37486 0.16427,0.97244 1.652377,0.76247 2.442337,1.32308 l 0.33085,-0.47789 c -0.69469,-0.49301 -1.782922,-0.008 -1.917982,-0.80757 -0.13505,-0.79956 0.681072,-2.91486 1.421702,-4.1184 z"
           id="path1547"
           style="fill:#000000;fill-rule:evenodd;stroke-width:0.770331px" />
        <path
           d="m 22.215497,172.5725 c 1.103997,2.33664 -0.66812,2.35836 -1.458149,2.73082 -0.614295,-0.46097 -1.929578,-1.8291 -2.3377,-2.78488 -0.128406,5.30672 1.72452,8.20339 3.068023,9.66903 1.343503,1.46564 9.282384,2.56487 13.557165,0 4.274782,-2.56487 13.238881,-11.33623 8.362273,-18.51778 -0.667665,0.46471 -1.884037,0.36324 -2.743988,0.19728 0.122137,1.58778 -2.018658,6.19015 -5.92703,7.90007 -3.908372,1.70991 -6.723191,2.12331 -7.752272,3.65592 -2.011168,0.0595 -3.133553,-0.74848 -2.221615,-2.8323 -0.491043,0.16096 -2.006173,-0.0207 -2.546707,-0.0182 z"
           id="path1549"
           style="fill:url(#linearGradient12994);fill-rule:evenodd;stroke-width:0.770331px" />
        <path
           d="m 23.134459,167.20898 c 0,0 -7.085056,1.82387 -7.505951,3.08656 -0.420894,1.26268 1.052237,2.73581 1.052237,2.73581 0,0 4.629838,-3.8582 6.594012,-3.78805 -0.140298,-0.49104 0.07015,-1.12238 -0.140298,-2.03432 z"
           id="path1551"
           style="fill:url(#linearGradient12996);fill-rule:evenodd;stroke-width:0.770331px" />
        <path
           d="m 23.672983,167.22955 c 0,0 7.408464,0.11546 8.187847,1.19439 0.779381,1.07893 -0.18555,2.92531 -0.18555,2.92531 0,0 -5.742021,-2.87813 -7.595245,-2.22356 -0.01304,-0.51052 -0.33503,-0.96301 -0.407052,-1.89614 z"
           id="path1553"
           style="fill:url(#linearGradient12998);fill-rule:evenodd;stroke-width:0.770331px" />
        <path
           d="m 12.446563,131.67767 2.588389,-6.60355 5.088388,6.96967 3.573223,-8.73744 4.457107,8.5481 c 0,0 3.131282,-8.84056 3.131282,-8.164 0,0.67656 3.295495,9.22466 3.295495,9.22466 l 3.75,-8.19454 2.490115,8.10615 4.302778,-7.03293 1.25,6.25 v 5 c 0,0 -27.5,1.25 -30,0 -2.5,-1.25 -4.013826,-5.22161 -3.926777,-5.36612 z"
           id="path1555"
           style="fill:url(#linearGradient13000);fill-rule:evenodd;stroke-width:0.770331px" />
        <path
           d="m 13.15501,143.22428 c 10.076271,2.38648 22.627416,2.47487 33.145629,0 0,0 2.386487,-16.52862 2.386487,-16.52862 l -4.596195,6.54074 -2.828427,-7.42463 -3.535534,7.24785 -3.623922,-8.30851 -3.270369,8.22012 -3.71231,-8.04334 -3.27037,8.75045 -4.861359,-7.6014 -3.623922,7.86656 -5.568466,-6.89429 c 0,0 3.093592,15.82151 3.358758,16.17507 z"
           id="path1557"
           style="fill:url(#linearGradient13002);fill-rule:evenodd;stroke-width:0.770331px" />
        <path
           d="m 43.648989,177.78412 c -0.672096,0.50967 -2.916815,2.38649 -2.916815,2.38649 l 9.391166,6.87318 2.5,-2.5 z"
           id="path1559"
           style="fill:url(#linearGradient13004);fill-rule:evenodd;stroke-width:0.770331px" />
        <path
           d="m 29.532686,194.85248 -6.941713,-7.94776 h 17.404585 z"
           id="path1561"
           style="fill:#ff8900;fill-rule:evenodd;stroke-width:0.770331px" />
        <path
           d="m 27.258337,189.01348 -2.754387,3.39645 3.93934,2.7526 -4.278544,3.06445 2.851767,2.832 2.893476,-4.92418 2.990408,4.82323 3.042893,-3.2955 -5,-2.5 4.722272,-3.21967 -3.118719,-2.7526 -2.548466,4.98744 z"
           id="path1563"
           style="fill:url(#linearGradient13006);fill-rule:evenodd;stroke-width:0.770331px" />
        <path
           d="m 23.6875,123.29221 -2.53125,6.1875 L 19,126.07346 l -1.25,2.71875 -2.71875,-3.71875 -2.21875,5.6875 -3,-3.71875 c 0,0 3.07858,15.83395 3.34375,16.1875 0.0096,0.002 0.0216,-0.002 0.03125,0 -1.94548,3.09544 -2.34375,5.875 -2.34375,5.875 0.86733,0.30435 2.50601,0.5568 4.1875,0.78125 -0.96612,2.60342 -1.53125,5.45559 -1.53125,8.5 0,4.21741 1.03997,8.13493 2.8125,11.40625 -0.23986,0.17339 -0.6341,0.3398 -0.6875,0.5 -0.42089,1.26268 1.0625,2.75 1.0625,2.75 0,0 0.78779,-0.56256 1.1875,-0.875 0.1986,0.27012 0.35268,0.58679 0.5625,0.84375 0.0039,2.65104 0.5175,4.60405 1.1875,6.125 -0.07887,0.0314 -0.17192,0.0296 -0.25,0.0625 l -0.75,-1.625 -6.78125,5.53125 1.84375,1.3125 c -1.18474,1.93422 -2.0625,4.08782 -2.0625,6.53125 v 14.90625 c 6.01236,2.98001 16.36036,3.92627 26,3.09375 v 0.0312 l 3.4375,-0.25 v -0.0312 c 4.13452,-0.57877 8.05206,-1.46048 11.1875,-2.84375 v -14.90625 c 0,-1.77789 -0.37817,-3.46586 -1.03125,-5 l 1.40625,-1.40625 -8.96875,-6.75 c -0.23706,0.17977 -0.57039,0.46615 -1.03125,0.84375 -0.93882,-0.23512 -1.92747,-0.39146 -2.9375,-0.40625 2.43804,-2.53454 4.70976,-5.74921 5.0625,-9.125 0.92232,-1.85096 1.6198,-3.85821 2.03125,-6.03125 1.25429,-0.27217 2.1273,-1.08428 4.65625,-1.90625 0,0 -0.04063,-10.2699 -5.125,-18.03125 0.02623,-0.18164 2.375,-16.4375 2.375,-16.4375 l -2.625,3.75 -0.9375,-4.65625 -2.375,3.90625 -1.5,-3.875 -1.59375,3.25 -1.3125,-4.34375 -2.1875,4.78125 -2.0625,-4.75 -1.28125,3.21875 c -0.76089,-2.06382 -1.53125,-3.96722 -1.53125,-4.28125 0,-0.46436 -1.23094,3.027 -2.15625,5.59375 l -2,-4.375 -1.09375,2.875 z"
           id="path1565"
           style="fill:url(#linearGradient13008);stroke-width:1.54066" />
      </g>
    </g>
  </g>
</svg>
