<?xml version="1.0" encoding="UTF-8" standalone="no"?>
<!-- Created with Inkscape (http://www.inkscape.org/) -->

<svg
   width="52.916668mm"
   height="66.145851mm"
   viewBox="0 0 52.916668 66.145851"
   version="1.1"
   id="svg1"
   sodipodi:docname="sk.svg"
   inkscape:version="1.3.2 (091e20e, 2023-11-25)"
   xmlns:inkscape="http://www.inkscape.org/namespaces/inkscape"
   xmlns:sodipodi="http://sodipodi.sourceforge.net/DTD/sodipodi-0.dtd"
   xmlns:xlink="http://www.w3.org/1999/xlink"
   xmlns="http://www.w3.org/2000/svg"
   xmlns:svg="http://www.w3.org/2000/svg">
  <sodipodi:namedview
     id="namedview1"
     pagecolor="#505050"
     bordercolor="#ffffff"
     borderopacity="1"
     inkscape:showpageshadow="0"
     inkscape:pageopacity="0"
     inkscape:pagecheckerboard="1"
     inkscape:deskcolor="#d1d1d1"
     inkscape:document-units="mm"
     inkscape:zoom="0.94399975"
     inkscape:cx="103.81359"
     inkscape:cy="141.94919"
     inkscape:window-width="1344"
     inkscape:window-height="424"
     inkscape:window-x="221"
     inkscape:window-y="44"
     inkscape:window-maximized="0"
     inkscape:current-layer="svg1" />
  <defs
     id="defs1">
    <linearGradient
       gradientTransform="matrix(0.186825,0,0,0.144857,-40.31979,3.04928)"
       gradientUnits="userSpaceOnUse"
       id="linearGradient30461"
       x1="356.44232"
       x2="484.79608"
       xlink:href="#linearGradient3857"
       y1="437.49887"
       y2="256.17966" />
    <linearGradient
       id="linearGradient3857">
      <stop
         id="stop3859"
         offset="0.0000000"
         style="stop-color:#ffd8c1;stop-opacity:1.0000000;" />
      <stop
         id="stop3861"
         offset="1.0000000"
         style="stop-color:#ffeded;stop-opacity:1.0000000;" />
    </linearGradient>
    <linearGradient
       gradientTransform="translate(-10.62666,-29.70621)"
       gradientUnits="userSpaceOnUse"
       id="linearGradient30463"
       x1="25.75"
       x2="32.217068"
       xlink:href="#linearGradient5407"
       y1="103.13147"
       y2="101.98242" />
    <linearGradient
       id="linearGradient5407">
      <stop
         id="stop5409"
         offset="0.0000000"
         style="stop-color:#f0eb00;stop-opacity:1.0000000;" />
      <stop
         id="stop5411"
         offset="1.0000000"
         style="stop-color:#ffff00;stop-opacity:1.0000000;" />
    </linearGradient>
    <linearGradient
       gradientTransform="matrix(0.144857,0,0,0.144857,-17.92459,13.6897)"
       gradientUnits="userSpaceOnUse"
       id="linearGradient30465"
       x1="298.98572"
       x2="449.32318"
       xlink:href="#linearGradient6214"
       y1="540.53918"
       y2="415.53949" />
    <linearGradient
       id="linearGradient6214">
      <stop
         id="stop6216"
         offset="0.0000000"
         style="stop-color:#c10000;stop-opacity:1.0000000;" />
      <stop
         id="stop6218"
         offset="1.0000000"
         style="stop-color:#ff433e;stop-opacity:1.0000000;" />
    </linearGradient>
    <linearGradient
       gradientTransform="matrix(0.144857,0,0,0.144857,-17.52689,16.38263)"
       gradientUnits="userSpaceOnUse"
       id="linearGradient30467"
       x1="294.24606"
       x2="312.09238"
       xlink:href="#linearGradient6214"
       y1="346.32654"
       y2="322.13895" />
    <linearGradient
       gradientTransform="translate(-10.62666,-29.70621)"
       gradientUnits="userSpaceOnUse"
       id="linearGradient30469"
       x1="32.463516"
       x2="60"
       xlink:href="#linearGradient5417"
       y1="58.34021"
       y2="51.180752" />
    <linearGradient
       id="linearGradient5417">
      <stop
         id="stop5419"
         offset="0.0000000"
         style="stop-color:#f0a700;stop-opacity:1.0000000;" />
      <stop
         id="stop5421"
         offset="1.0000000"
         style="stop-color:#ffed00;stop-opacity:1.0000000;" />
    </linearGradient>
    <linearGradient
       gradientTransform="translate(-10.62666,-29.70621)"
       gradientUnits="userSpaceOnUse"
       id="linearGradient30471"
       x1="32.968857"
       x2="60.722794"
       xlink:href="#linearGradient5407"
       y1="63.941719"
       y2="56.605484" />
    <linearGradient
       gradientTransform="translate(-10.62666,-29.70621)"
       gradientUnits="userSpaceOnUse"
       id="linearGradient30473"
       x1="58.247921"
       x2="61.035088"
       xlink:href="#linearGradient5407"
       y1="104.91566"
       y2="103.1479" />
    <linearGradient
       gradientTransform="translate(-7.30671,-26.58747)"
       gradientUnits="userSpaceOnUse"
       id="linearGradient30475"
       x1="36.313263"
       x2="43.598351"
       xlink:href="#linearGradient5407"
       y1="116.76148"
       y2="110.92786" />
    <linearGradient
       gradientTransform="matrix(0.186825,0,0,0.144857,-40.31813,3.047692)"
       gradientUnits="userSpaceOnUse"
       id="linearGradient30477"
       x1="688.30371"
       x2="361.49808"
       xlink:href="#linearGradient2580"
       y1="-31.9296"
       y2="346.66711" />
    <linearGradient
       id="linearGradient2580">
      <stop
         id="stop2582"
         offset="0"
         style="stop-color:#ffffff;stop-opacity:1;" />
      <stop
         id="stop2584"
         offset="1"
         style="stop-color:#ffffff;stop-opacity:0;" />
    </linearGradient>
  </defs>
  <g
     id="layer1"
     transform="translate(-122.04995,-75.233892)">
    <g
       id="g15"
       transform="translate(-197.66543,201.6051)">
      <g
         id="path3229-6-3-4-7-6">
        <path
           style="color:#000000;fill:#ffffff;fill-rule:evenodd;-inkscape-stroke:none"
           d="m 372.36746,-123.72537 c 0,-1.32291 -1.05834,-2.38125 -2.38125,-2.38125 h -47.625 c -1.32291,0 -2.38125,1.05834 -2.38125,2.38125 v 60.854175 c 0,1.32292 1.05834,2.381254 2.38125,2.381254 h 47.625 c 1.32291,0 2.38125,-1.058334 2.38125,-2.381254 z"
           id="path1" />
        <path
           style="color:#000000;fill:#000000;fill-rule:evenodd;-inkscape-stroke:none"
           d="m 322.36133,-126.37109 c -1.46402,0 -2.64649,1.18246 -2.64649,2.64648 v 60.853516 c 0,1.464031 1.18247,2.646485 2.64649,2.646485 h 47.625 c 1.46402,0 2.64648,-1.182454 2.64648,-2.646485 v -60.853516 c 0,-1.46402 -1.18246,-2.64648 -2.64648,-2.64648 z m 0,0.52929 h 47.625 c 1.18179,0 2.11719,0.93539 2.11719,2.11719 v 60.853516 c 0,1.181807 -0.9354,2.117188 -2.11719,2.117188 h -47.625 c -1.1818,0 -2.11719,-0.935381 -2.11719,-2.117188 v -60.853516 c 0,-1.1818 0.93539,-2.11719 2.11719,-2.11719 z"
           id="path2" />
      </g>
      <g
         id="path2231-3-0">
        <path
           style="color:#000000;fill:#000000;fill-rule:evenodd;-inkscape-stroke:none"
           d="m 363.20568,-123.28985 c -2.52631,3.38094 -5.84209,5.35315 -5.84209,8.17059 0,2.53572 1.57894,3.09921 2.5263,3.09921 1.26317,0 2.21053,-0.56349 2.21053,-2.53571 0,-0.5635 0.63157,-0.5635 0.63157,0 0,2.81745 -0.63157,2.81745 -1.26315,4.22618 h 3.47369 c -0.63158,-1.40873 -1.26316,-1.40873 -1.26316,-4.22618 0,-0.5635 0.63158,-0.5635 0.63158,0 0,2.25397 0.94736,2.53571 2.21051,2.53571 0.94736,0 2.8421,-0.56349 2.8421,-3.09921 0,-2.85418 -3.63156,-4.78965 -6.15788,-8.17059 z"
           id="path3" />
        <path
           style="color:#000000;fill:#000000;fill-rule:evenodd;-inkscape-stroke:none"
           d="m 363.20508,-123.51172 -0.10547,0.14258 c -1.25393,1.67812 -2.71012,3.01209 -3.86133,4.28711 -1.15121,1.27502 -2.00781,2.50227 -2.00781,3.96289 0,1.29532 0.40979,2.11485 0.95312,2.59961 0.54334,0.48476 1.20713,0.63086 1.70703,0.63086 0.65126,0 1.24258,-0.14505 1.66993,-0.56446 0.42734,-0.4194 0.67187,-1.09622 0.67187,-2.10351 0,-0.23233 0.10439,-0.28906 0.1836,-0.28906 0.0792,0 0.18359,0.0567 0.18359,0.28906 0,1.39884 -0.15495,2.07965 -0.38281,2.58789 -0.22786,0.50824 -0.54662,0.86655 -0.86914,1.58594 l -0.084,0.18554 h 3.88281 l -0.084,-0.18554 c -0.32252,-0.71939 -0.63932,-1.0777 -0.86719,-1.58594 -0.22786,-0.50824 -0.38281,-1.18905 -0.38281,-2.58789 0,-0.23233 0.10439,-0.28906 0.18359,-0.28906 0.0792,0 0.18164,0.0567 0.18164,0.28906 0,1.14552 0.24182,1.82571 0.67579,2.21289 0.43396,0.38718 1.02655,0.45508 1.66796,0.45508 0.49991,0 1.2352,-0.14387 1.85743,-0.625 0.62223,-0.48113 1.11718,-1.30466 1.11718,-2.60547 0,-1.4832 -0.93992,-2.71069 -2.16992,-3.98047 -1.22999,-1.26978 -2.76146,-2.59371 -4.01367,-4.26953 z m 0.004,0.41602 c 1.2536,1.63991 2.74318,2.95877 3.92774,4.18164 1.21736,1.25673 2.09375,2.42394 2.09375,3.79492 0,1.23491 -0.45169,1.96194 -1.01367,2.39648 -0.56198,0.43455 -1.24787,0.57032 -1.69532,0.57032 -0.62173,0 -1.13473,-0.0715 -1.49023,-0.38868 -0.3555,-0.31718 -0.58789,-0.90717 -0.58789,-2.01562 0,-0.33118 -0.21068,-0.55469 -0.44727,-0.55469 -0.23658,0 -0.44922,0.22351 -0.44922,0.55469 0,1.41861 0.16043,2.14897 0.40625,2.69726 0.21705,0.48411 0.49466,0.85397 0.76758,1.39844 h -3.02929 c 0.2729,-0.54441 0.5486,-0.91436 0.76562,-1.39844 0.24582,-0.54829 0.4082,-1.27865 0.4082,-2.69726 0,-0.33117 -0.21263,-0.55469 -0.44921,-0.55469 -0.23659,0 -0.44727,0.22352 -0.44727,0.55469 0,0.96493 -0.22967,1.55867 -0.5918,1.91406 -0.36212,0.3554 -0.87441,0.49024 -1.48633,0.49024 -0.44745,0 -1.04827,-0.13354 -1.53125,-0.56446 -0.48297,-0.43091 -0.86328,-1.16194 -0.86328,-2.40234 0,-1.35682 0.8012,-2.52448 1.93946,-3.78516 1.10783,-1.22697 2.52538,-2.55265 3.77343,-4.1914 z"
           id="path4" />
      </g>
      <path
         d="m 338.41212,-109.11998 v -0.52965 q 1.00634,0 1.00634,-0.28248 0,-0.22952 -0.45903,-0.8651 l -3.17792,-4.09599 -0.79448,0.72386 q -0.1942,0.17655 -0.3531,0.40607 -0.14124,0.22952 -0.1942,0.54731 v 2.34813 q 0,1.2182 1.76551,1.2182 v 0.52965 h -5.11998 v -0.52965 q 1.62427,0 1.62427,-1.2182 v -8.12135 q 0,-1.28882 -1.74786,-1.28882 v -0.54731 h 5.03171 v 0.54731 q -1.55365,0 -1.55365,1.28882 v 4.29019 l 4.11364,-3.90178 q 0.40606,-0.37076 0.52965,-0.58262 0.14124,-0.22951 0.14124,-0.61793 0,-0.47668 -1.2182,-0.47668 v -0.54731 h 4.57267 v 0.54731 q -0.52966,0.053 -0.88276,0.15889 -0.33544,0.0883 -0.63558,0.28248 -0.30014,0.17656 -0.63558,0.49435 -0.33545,0.30013 -0.8651,0.81213 l -2.48937,2.41875 4.02536,5.24357 q 0.24717,0.26482 0.45903,0.49434 0.21186,0.22951 0.44138,0.38841 0.24717,0.1589 0.52965,0.24717 0.30014,0.0883 0.72386,0.0883 v 0.52965 z"
         id="text1-4-9"
         style="-inkscape-font-specification:'Marion, Normal';stroke-width:0.264583"
         transform="scale(0.97909917,1.021347)"
         aria-label="K" />
      <g
         id="path2231-4-0">
        <path
           style="color:#000000;fill:#000000;fill-rule:evenodd;-inkscape-stroke:none"
           d="m 346.54367,-101.81884 c -5.52783,7.355171 -12.78303,11.645659 -12.78303,17.774963 0,5.516389 3.45488,6.74224 5.52778,6.74224 2.76392,0 4.83682,-1.225851 4.83682,-5.516369 0,-1.225871 1.38196,-1.225871 1.38196,0 0,6.129294 -1.38196,6.129294 -2.7639,9.193961 h 7.60076 c -1.38196,-3.064667 -2.76392,-3.064667 -2.76392,-9.193961 0,-1.225871 1.38196,-1.225871 1.38196,0 0,4.903464 2.07291,5.516369 4.83682,5.516369 2.0729,0 6.21878,-1.225851 6.21878,-6.74224 0,-6.209225 -7.9462,-10.419792 -13.47403,-17.774963 z"
           id="path5" />
        <path
           style="color:#000000;fill:#000000;fill-rule:evenodd;-inkscape-stroke:none"
           d="m 346.54297,-102.03906 -0.10547,0.14062 c -2.75463,3.665239 -5.94575,6.572556 -8.45703,9.337893 -2.51128,2.765337 -4.35156,5.400732 -4.35156,8.517578 0,2.78581 0.87818,4.51428 2.03125,5.53711 1.15306,1.022829 2.56638,1.335937 3.6289,1.335937 1.40152,0 2.65046,-0.310863 3.54688,-1.185547 0.89641,-0.874683 1.42187,-2.296329 1.42187,-4.46289 0,-0.563223 0.29134,-0.78711 0.5586,-0.78711 0.26725,0 0.55859,0.223887 0.55859,0.78711 0,3.054701 -0.34239,4.562247 -0.85156,5.691406 -0.50918,1.129159 -1.20263,1.901823 -1.90039,3.449219 l -0.084,0.185547 h 8.00977 l -0.084,-0.185547 c -0.69777,-1.547396 -1.39121,-2.32006 -1.90039,-3.449219 -0.50917,-1.129159 -0.85156,-2.636705 -0.85156,-5.691406 0,-0.563223 0.29134,-0.78711 0.55859,-0.78711 0.26726,0 0.5586,0.223887 0.5586,0.78711 0,2.470371 0.52276,3.896242 1.42578,4.697265 0.90302,0.801023 2.15124,0.951172 3.54297,0.951172 1.06252,0 2.64107,-0.310892 3.96679,-1.330078 1.32573,-1.019186 2.38477,-2.751636 2.38477,-5.542969 0,-3.161042 -2.01731,-5.79609 -4.70117,-8.550781 -2.68386,-2.754691 -6.04592,-5.641751 -8.79883,-9.30469 z m 0.002,0.41992 c 2.75556,3.6288 6.07588,6.500373 8.71485,9.208984 2.67119,2.741686 4.625,5.319011 4.625,8.367187 0,2.725051 -1.01387,4.36115 -2.2793,5.333985 -1.26544,0.972834 -2.79627,1.27539 -3.80664,1.27539 -1.37218,0 -2.54278,-0.155425 -3.36719,-0.886718 -0.82441,-0.731294 -1.33789,-2.06496 -1.33789,-4.498047 0,-0.662647 -0.39854,-1.050782 -0.82227,-1.050782 -0.42372,0 -0.82421,0.388135 -0.82421,1.050782 0,3.074586 0.34966,4.631452 0.87695,5.800781 0.49895,1.106479 1.14945,1.899731 1.79687,3.261719 h -7.15625 c 0.64742,-1.362024 1.29988,-2.155225 1.79883,-3.261719 0.52729,-1.169329 0.875,-2.726195 0.875,-5.800781 0,-0.662647 -0.39854,-1.050782 -0.82226,-1.050782 -0.42373,0 -0.82422,0.388135 -0.82422,1.050782 0,2.123952 -0.51078,3.462567 -1.3418,4.273437 -0.83101,0.81087 -1.99893,1.111328 -3.36133,1.111328 -1.01037,0 -2.36052,-0.300339 -3.45312,-1.269531 -1.0926,-0.969192 -1.94336,-2.60927 -1.94336,-5.339844 0,-3.012452 1.78688,-5.588824 4.28515,-8.339843 2.46809,-2.717777 5.61747,-5.609389 8.36719,-9.236328 z"
           id="path6" />
      </g>
      <g
         id="g3155"
         transform="matrix(0.39149314,0,0,0.33496192,333.65784,-106.49175)"
         style="stroke-width:0.730683">
        <path
           d="m 31.868703,16.58895 c -1.984184,-1.621496 -3.418098,-2.630647 -5.77799,-5.118693 -1.766011,7.184733 -4.002336,6.154398 -7.027858,3.611151 -3.018518,-3.035803 -2.781058,11.103163 -8.602627,-1.835975 -1.678019,0.230296 1.737712,10.879185 2.201224,15.018796 3.469179,4.894432 -2.011403,11.096321 -0.275714,14.597817 5.736827,-0.376384 0.64032,6.226164 2.358153,9.760363 0.373386,4.679903 2.021301,8.456518 2.660699,12.733881 9.695747,4.43124 -8.41964,7.46303 -4.221134,11.01299 0.794564,3.26584 -1.558658,9.16934 -0.560116,13.58076 -0.712464,5.99944 -0.62702,11.41412 6.75,11.6875 12.780602,2.47945 25.816934,2.3938 37.875,-2.34375 0.134586,-6.98743 -0.09522,-14.90643 -0.21875,-21.34375 3.164713,-3.8642 -7.895168,-6.49837 -10.379637,-9.982057 3.527406,-4.321192 2.310292,-12.724333 9.464364,-13.326834 0.759407,-6.259034 -1.413611,-13.95913 -4.740977,-19.847359 1.070328,-7.660408 2.342735,-15.295265 3.0625,-23 -7.169641,14.794397 -4.28406,-3.01395 -7.450913,4.0129 -2.050713,2.307109 -3.298268,-0.730221 -4.603911,-0.61039 -1.296368,-5.817632 -3.648022,7.244657 -5.382676,-3.65251 -2.244098,9.141135 -2.866345,-6.301724 -4.453087,3.072231 z"
           id="path2085"
           style="fill:#000000;stroke-width:1.46137" />
        <path
           d="m 50.252239,50.396839 c 0,11.413332 -7.563868,20.676331 -16.883635,20.676331 -9.319767,0 -16.883635,-9.262999 -16.883635,-20.676331 0,-11.413333 7.563868,-20.676328 16.883635,-20.676328 9.319767,0 16.883635,9.262995 16.883635,20.676328 z"
           id="path1418"
           style="fill:url(#linearGradient30461);stroke-width:1.46137" />
        <path
           d="m 16.87334,76.54379 -2.045495,-1.42678 6.78033,-5.530327 1.515165,3.207107 c 0,0 -5.918894,4.01925 -6.25,3.75 z"
           id="path2451"
           style="fill:url(#linearGradient30463);fill-rule:evenodd;stroke-width:0.730683px" />
        <path
           d="m 27.343298,70.21122 c -7.049056,0 -12.724818,5.67576 -12.724818,12.72481 v 14.92936 c 9.379895,4.64913 29.526179,4.89382 40.618906,0 V 82.93603 c 0,-7.04905 -5.675755,-12.72481 -12.724811,-12.72481 z"
           id="path1420"
           style="fill:url(#linearGradient30465);stroke-width:1.46137" />
        <path
           d="m 13.82991,41.095487 c 0,0 1.697949,-14.374929 20.611772,-14.410364 19.976253,0.819522 19.99724,26.49551 19.99724,26.49551 -4.852885,1.577312 -3.505094,3.258346 -10.747122,0.760044 0.791673,-5.698983 -0.499458,-9.878835 -3.925129,-12.815123 -4.268891,2.238868 -21.563715,1.504478 -25.936761,-0.03007 z"
           id="path1422"
           style="fill:#000000;fill-rule:evenodd;stroke-width:1.12315px" />
        <g
           id="g1424"
           transform="matrix(0.144857,0,0,0.09790296,-17.7253,27.11273)">
          <path
             d="m 353,245.86218 c 0,11.868 -9.408,21.5 -21,21.5 -11.592,0 -21,-9.632 -21,-21.5 0,-11.868 9.408,-21.5 21,-21.5 11.592,0 21,9.632 21,21.5 z"
             id="path1426"
             style="fill:#ffffff;stroke-width:1.46137"
             transform="translate(-4,-6)" />
          <path
             d="m 353,245.86218 c 0,11.868 -9.408,21.5 -21,21.5 -11.592,0 -21,-9.632 -21,-21.5 0,-11.868 9.408,-21.5 21,-21.5 11.592,0 21,9.632 21,21.5 z"
             id="path1428"
             style="fill:#0f1fcc;stroke-width:1.46137"
             transform="matrix(0.571429,0,0,0.83721,129.2857,34.52408)" />
          <path
             d="m 353,245.86218 c 0,11.868 -9.408,21.5 -21,21.5 -11.592,0 -21,-9.632 -21,-21.5 0,-11.868 9.408,-21.5 21,-21.5 11.592,0 21,9.632 21,21.5 z"
             id="path1430"
             style="fill:#000000;stroke-width:1.46137"
             transform="matrix(0.357143,0,0,0.674419,195.9286,76.04816)" />
        </g>
        <g
           id="g1438"
           transform="matrix(0.144857,0,0,0.09790296,-27.8138,26.77181)">
          <path
             d="m 353,245.86218 c 0,11.868 -9.408,21.5 -21,21.5 -11.592,0 -21,-9.632 -21,-21.5 0,-11.868 9.408,-21.5 21,-21.5 11.592,0 21,9.632 21,21.5 z"
             id="path1440"
             style="fill:#ffffff;stroke-width:1.46137"
             transform="translate(-4,-6)" />
          <path
             d="m 353,245.86218 c 0,11.868 -9.408,21.5 -21,21.5 -11.592,0 -21,-9.632 -21,-21.5 0,-11.868 9.408,-21.5 21,-21.5 11.592,0 21,9.632 21,21.5 z"
             id="path1442"
             style="fill:#0f1fcc;stroke-width:1.46137"
             transform="matrix(0.571429,0,0,0.83721,129.2857,34.52408)" />
          <path
             d="m 353,245.86218 c 0,11.868 -9.408,21.5 -21,21.5 -11.592,0 -21,-9.632 -21,-21.5 0,-11.868 9.408,-21.5 21,-21.5 11.592,0 21,9.632 21,21.5 z"
             id="path1444"
             style="fill:#000000;stroke-width:1.46137"
             transform="matrix(0.357143,0,0,0.674419,195.9286,76.04816)" />
        </g>
        <path
           d="m 21.818066,63.779025 c 2.920276,0.138914 7.302222,0.335557 11.727824,0 -4.653998,-1.717852 -7.920837,-2.246091 -11.727824,0 z"
           id="path1446"
           style="fill:url(#linearGradient30467);fill-rule:evenodd;stroke-width:0.730683px" />
        <path
           d="m 41.440844,86.09033 1.26359,0.12326 1.371356,14.51276 -3.465186,0.2504 z"
           id="path1448"
           style="fill:#700000;stroke-width:1.46137" />
        <path
           d="m 23.479613,51.988878 c -0.7919,1.28683 -1.944897,3.402418 -1.780637,4.374858 0.16427,0.97244 1.652377,0.762472 2.442337,1.323082 l 0.33085,-0.47789 c -0.69469,-0.49301 -1.782922,-0.008 -1.917982,-0.807565 -0.13505,-0.79956 0.681072,-2.914865 1.421702,-4.118405 z"
           id="path1454"
           style="fill:#000000;fill-rule:evenodd;stroke-width:0.730683px" />
        <path
           d="m 25.215497,64.572502 c 1.103997,2.336638 -0.66812,2.358356 -1.458149,2.73082 -0.614295,-0.460969 -1.929578,-1.8291 -2.3377,-2.784885 -0.128406,5.306728 1.72452,8.203393 3.068023,9.669033 1.343503,1.46564 9.282384,2.56487 13.557165,0 4.274782,-2.56487 13.238881,-11.336235 8.362273,-18.517775 -0.667665,0.464709 -1.884037,0.363231 -2.743988,0.19728 0.122137,1.587776 -2.018658,6.190148 -5.92703,7.90006 -3.908372,1.709913 -6.723191,2.123317 -7.752272,3.655926 -2.011168,0.05948 -3.133553,-0.748485 -2.221615,-2.832298 -0.491043,0.160957 -2.006173,-0.02066 -2.546707,-0.01816 z"
           id="path1649"
           style="fill:#000000;fill-rule:evenodd;stroke-width:0.730683px" />
        <path
           d="m 26.134459,59.208979 c 0,0 -7.085056,1.823876 -7.505951,3.086559 -0.420894,1.262683 1.052237,2.735814 1.052237,2.735814 0,0 4.629838,-3.858199 6.594012,-3.78805 -0.140298,-0.491044 0.07015,-1.122385 -0.140298,-2.034323 z"
           id="path2411"
           style="fill:#000000;fill-rule:evenodd;stroke-width:0.730683px" />
        <path
           d="m 26.672983,59.229549 c 0,0 7.408464,0.115465 8.187847,1.194392 0.779381,1.078928 -0.18555,2.925312 -0.18555,2.925312 0,0 -5.742021,-2.878131 -7.595245,-2.22356 -0.01304,-0.510527 -0.33503,-0.963014 -0.407052,-1.896144 z"
           id="path2413"
           style="fill:#000000;fill-rule:evenodd;stroke-width:0.730683px" />
        <path
           d="m 15.446563,23.677673 2.588389,-6.603553 5.088388,6.96967 3.573223,-8.737437 4.457107,8.548097 c 0,0 3.131282,-8.840557 3.131282,-8.163997 0,0.67656 3.295495,9.224657 3.295495,9.224657 l 3.75,-8.194543 2.490115,8.106155 4.302778,-7.032932 1.25,6.25 v 5 c 0,0 -27.5,1.25 -30,0 -2.5,-1.25 -4.013826,-5.221609 -3.926777,-5.366117 z"
           id="path2427"
           style="fill:url(#linearGradient30469);fill-rule:evenodd;stroke-width:0.730683px" />
        <path
           d="m 16.15501,35.224278 c 10.076271,2.386485 22.627416,2.474874 33.145629,0 0,0 2.386487,-16.528621 2.386487,-16.528621 l -4.596195,6.540738 -2.828427,-7.424621 -3.535534,7.247844 -3.623922,-8.308505 -3.270369,8.220117 -3.71231,-8.04334 -3.27037,8.750447 -4.861359,-7.601399 -3.623922,7.866564 -5.568466,-6.894291 c 0,0 3.093592,15.821514 3.358758,16.175067 z"
           id="path2415"
           style="fill:url(#linearGradient30471);fill-rule:evenodd;stroke-width:0.730683px" />
        <path
           d="m 46.648989,69.784122 c -0.672096,0.509668 -2.916815,2.386488 -2.916815,2.386488 l 9.391166,6.87318 2.5,-2.5 z"
           id="path2439"
           style="fill:url(#linearGradient30473);fill-rule:evenodd;stroke-width:0.730683px" />
        <path
           d="M 32.532686,86.85248 25.590973,78.90472 H 42.995558 Z"
           id="path2471"
           style="fill:#ff8900;fill-rule:evenodd;stroke-width:0.730683px" />
        <path
           d="m 30.258337,81.01348 -2.754387,3.39645 3.93934,2.7526 -4.278544,3.06445 2.851767,2.832 2.893476,-4.92418 2.990408,4.82323 3.042893,-3.2955 -5,-2.5 4.722272,-3.21967 -3.118719,-2.7526 -2.548466,4.98744 z"
           id="path2461"
           style="fill:url(#linearGradient30475);fill-rule:evenodd;stroke-width:0.730683px" />
        <path
           d="m 26.6875,15.292202 -2.53125,6.1875 L 22,18.073452 l -1.25,2.71875 -2.71875,-3.71875 -2.21875,5.6875 -3,-3.71875 c 0,0 3.07858,15.833947 3.34375,16.1875 0.0096,0.0023 0.0216,-0.0023 0.03125,0 -1.94548,3.095438 -2.34375,5.875 -2.34375,5.875 0.86733,0.304354 2.50601,0.556801 4.1875,0.78125 -0.96612,2.603421 -1.53125,5.455591 -1.53125,8.5 0,4.21741 1.03997,8.134929 2.8125,11.40625 -0.23986,0.173393 -0.6341,0.339802 -0.6875,0.5 -0.42089,1.262684 1.0625,2.75 1.0625,2.75 0,0 0.78779,-0.562557 1.1875,-0.875 0.1986,0.27012 0.35268,0.586794 0.5625,0.84375 0.0039,2.651043 0.5175,4.60405 1.1875,6.125 -0.07887,0.0314 -0.17192,0.02958 -0.25,0.0625 l -0.75,-1.625 -6.78125,5.53125 1.84375,1.3125 c -1.18474,1.93422 -2.0625,4.08782 -2.0625,6.53125 v 14.90625 c 6.01236,2.980018 16.36036,3.926278 26,3.093758 v 0.0312 l 3.4375,-0.25 v -0.0312 c 4.13452,-0.57877 8.05206,-1.460488 11.1875,-2.843758 v -14.90625 c 0,-1.77789 -0.37817,-3.46586 -1.03125,-5 l 1.40625,-1.40625 -8.96875,-6.75 c -0.23706,0.179771 -0.57039,0.46615 -1.03125,0.84375 -0.93882,-0.23512 -1.92747,-0.391459 -2.9375,-0.40625 2.43804,-2.534544 4.70976,-5.749205 5.0625,-9.125 0.92232,-1.850959 1.6198,-3.858215 2.03125,-6.03125 1.25429,-0.272167 2.1273,-1.084276 4.65625,-1.90625 0,0 -0.04063,-10.269903 -5.125,-18.03125 0.02623,-0.181644 2.375,-16.4375 2.375,-16.4375 l -2.625,3.75 -0.9375,-4.65625 -2.375,3.90625 -1.5,-3.875 -1.59375,3.25 -1.3125,-4.34375 -2.1875,4.78125 -2.0625,-4.75 -1.28125,3.21875 c -0.76089,-2.063824 -1.53125,-3.967217 -1.53125,-4.28125 0,-0.464363 -1.23094,3.026996 -2.15625,5.59375 l -2,-4.375 -1.09375,2.875 z"
           id="path1688"
           style="fill:url(#linearGradient30477);stroke-width:1.46137" />
      </g>
    </g>
  </g>
</svg>
